
output.riscv:     file format elf32-littleriscv


Disassembly of section .text:

80000000 <main>:
80000000:	40000137          	lui	sp,0x40000
80000004:	00111113          	slli	sp,sp,0x1
80000008:	000101b7          	lui	gp,0x10
8000000c:	00310133          	add	sp,sp,gp
80000010:	000032b7          	lui	t0,0x3
80000014:	3002a073          	csrs	mstatus,t0
80000018:	00412083          	lw	ra,4(sp) # 40000004 <main-0x3ffffffc>
8000001c:	00c12183          	lw	gp,12(sp)
80000020:	01012203          	lw	tp,16(sp)
80000024:	01412283          	lw	t0,20(sp)
80000028:	01812303          	lw	t1,24(sp)
8000002c:	01c12383          	lw	t2,28(sp)
80000030:	02012403          	lw	s0,32(sp)
80000034:	02412483          	lw	s1,36(sp)
80000038:	02812503          	lw	a0,40(sp)
8000003c:	02c12583          	lw	a1,44(sp)
80000040:	03012603          	lw	a2,48(sp)
80000044:	03412683          	lw	a3,52(sp)
80000048:	03812703          	lw	a4,56(sp)
8000004c:	03c12783          	lw	a5,60(sp)
80000050:	04012803          	lw	a6,64(sp)
80000054:	04412883          	lw	a7,68(sp)
80000058:	04812903          	lw	s2,72(sp)
8000005c:	04c12983          	lw	s3,76(sp)
80000060:	05012a03          	lw	s4,80(sp)
80000064:	05412a83          	lw	s5,84(sp)
80000068:	05812b03          	lw	s6,88(sp)
8000006c:	05c12b83          	lw	s7,92(sp)
80000070:	06012c03          	lw	s8,96(sp)
80000074:	06412c83          	lw	s9,100(sp)
80000078:	06812d03          	lw	s10,104(sp)
8000007c:	06c12d83          	lw	s11,108(sp)
80000080:	07012e03          	lw	t3,112(sp)
80000084:	07412e83          	lw	t4,116(sp)
80000088:	07812f03          	lw	t5,120(sp)
8000008c:	07c12f83          	lw	t6,124(sp)

80000090 <i_0>:
80000090:	fcc10083          	lb	ra,-52(sp)

80000094 <i_1>:
80000094:	e0a1a693          	slti	a3,gp,-502

80000098 <i_2>:
80000098:	03c69263          	bne	a3,t3,800000bc <i_11>

8000009c <i_3>:
8000009c:	ee412783          	lw	a5,-284(sp)

800000a0 <i_4>:
800000a0:	01a58863          	beq	a1,s10,800000b0 <i_8>

800000a4 <i_5>:
800000a4:	eaa14c03          	lbu	s8,-342(sp)

800000a8 <i_6>:
800000a8:	24090093          	addi	ra,s2,576

800000ac <i_7>:
800000ac:	1e110483          	lb	s1,481(sp)

800000b0 <i_8>:
800000b0:	4691c693          	xori	a3,gp,1129

800000b4 <i_9>:
800000b4:	404ada13          	srai	s4,s5,0x4

800000b8 <i_10>:
800000b8:	f9511023          	sh	s5,-128(sp)

800000bc <i_11>:
800000bc:	01e0fab3          	and	s5,ra,t5

800000c0 <i_12>:
800000c0:	04c12603          	lw	a2,76(sp)

800000c4 <i_13>:
800000c4:	e3fca313          	slti	t1,s9,-449

800000c8 <i_14>:
800000c8:	01bb7833          	and	a6,s6,s11

800000cc <i_15>:
800000cc:	41c784b3          	sub	s1,a5,t3

800000d0 <i_16>:
800000d0:	02611063          	bne	sp,t1,800000f0 <i_24>

800000d4 <i_17>:
800000d4:	002b5e13          	srli	t3,s6,0x2

800000d8 <i_18>:
800000d8:	0085ec63          	bltu	a1,s0,800000f0 <i_24>

800000dc <i_19>:
800000dc:	029b7063          	bleu	s1,s6,800000fc <i_27>

800000e0 <i_20>:
800000e0:	edf10e03          	lb	t3,-289(sp)

800000e4 <i_21>:
800000e4:	f5712623          	sw	s7,-180(sp)

800000e8 <i_22>:
800000e8:	fa330513          	addi	a0,t1,-93

800000ec <i_23>:
800000ec:	0012df13          	srli	t5,t0,0x1

800000f0 <i_24>:
800000f0:	16b12823          	sw	a1,368(sp)

800000f4 <i_25>:
800000f4:	07a9ed97          	auipc	s11,0x7a9e

800000f8 <i_26>:
800000f8:	0d514083          	lbu	ra,213(sp)

800000fc <i_27>:
800000fc:	36c08293          	addi	t0,ra,876

80000100 <i_28>:
80000100:	a2933093          	sltiu	ra,t1,-1495

80000104 <i_29>:
80000104:	f8415d83          	lhu	s11,-124(sp)

80000108 <i_30>:
80000108:	00d50333          	add	t1,a0,a3

8000010c <i_31>:
8000010c:	ebe14083          	lbu	ra,-322(sp)

80000110 <i_32>:
80000110:	06610823          	sb	t1,112(sp)

80000114 <i_33>:
80000114:	1c615503          	lhu	a0,454(sp)

80000118 <i_34>:
80000118:	00500e93          	li	t4,5

8000011c <i_35>:
8000011c:	01dc5633          	srl	a2,s8,t4

80000120 <i_36>:
80000120:	fc812483          	lw	s1,-56(sp)

80000124 <i_37>:
80000124:	e39d3413          	sltiu	s0,s10,-455

80000128 <i_38>:
80000128:	01f12623          	sw	t6,12(sp)

8000012c <i_39>:
8000012c:	f9c11c23          	sh	t3,-104(sp)

80000130 <i_40>:
80000130:	09815603          	lhu	a2,152(sp)

80000134 <i_41>:
80000134:	18410aa3          	sb	tp,405(sp)

80000138 <i_42>:
80000138:	19812203          	lw	tp,408(sp)

8000013c <i_43>:
8000013c:	16a14683          	lbu	a3,362(sp)

80000140 <i_44>:
80000140:	40125d93          	srai	s11,tp,0x1

80000144 <i_45>:
80000144:	f2c101a3          	sb	a2,-221(sp)

80000148 <i_46>:
80000148:	0d412703          	lw	a4,212(sp)

8000014c <i_47>:
8000014c:	0048d993          	srli	s3,a7,0x4

80000150 <i_48>:
80000150:	09e14883          	lbu	a7,158(sp)

80000154 <i_49>:
80000154:	01200313          	li	t1,18

80000158 <i_50>:
80000158:	006918b3          	sll	a7,s2,t1

8000015c <i_51>:
8000015c:	83e00d93          	li	s11,-1986

80000160 <i_52>:
80000160:	84200213          	li	tp,-1982

80000164 <i_53>:
80000164:	011be463          	bltu	s7,a7,8000016c <i_55>

80000168 <i_54>:
80000168:	f3d10b83          	lb	s7,-195(sp)

8000016c <i_55>:
8000016c:	14e15c83          	lhu	s9,334(sp)

80000170 <i_56>:
80000170:	eba11323          	sh	s10,-346(sp)

80000174 <i_57>:
80000174:	be5b2837          	lui	a6,0xbe5b2

80000178 <i_58>:
80000178:	e1c12303          	lw	t1,-484(sp)

8000017c <i_59>:
8000017c:	03b2c063          	blt	t0,s11,8000019c <i_66>

80000180 <i_60>:
80000180:	15e11d23          	sh	t5,346(sp)

80000184 <i_61>:
80000184:	f5810b83          	lb	s7,-168(sp)

80000188 <i_62>:
80000188:	001d8d93          	addi	s11,s11,1 # 87a9e0f5 <_end+0x7a8dce1>
8000018c:	fc4d9ae3          	bne	s11,tp,80000160 <i_52>

80000190 <i_63>:
80000190:	e5c12e03          	lw	t3,-420(sp)

80000194 <i_64>:
80000194:	f7110703          	lb	a4,-143(sp)

80000198 <i_65>:
80000198:	0e710a23          	sb	t2,244(sp)

8000019c <i_66>:
8000019c:	eea10b83          	lb	s7,-278(sp)

800001a0 <i_67>:
800001a0:	805bb917          	auipc	s2,0x805bb

800001a4 <i_68>:
800001a4:	0121ea63          	bltu	gp,s2,800001b8 <i_73>

800001a8 <i_69>:
800001a8:	02efc463          	blt	t6,a4,800001d0 <i_79>

800001ac <i_70>:
800001ac:	eac103a3          	sb	a2,-345(sp)

800001b0 <i_71>:
800001b0:	02341463          	bne	s0,gp,800001d8 <i_81>

800001b4 <i_72>:
800001b4:	ea710523          	sb	t2,-342(sp)

800001b8 <i_73>:
800001b8:	00000013          	nop

800001bc <i_74>:
800001bc:	41260633          	sub	a2,a2,s2

800001c0 <i_75>:
800001c0:	00000013          	nop

800001c4 <i_76>:
800001c4:	00000013          	nop

800001c8 <i_77>:
800001c8:	14f10603          	lb	a2,335(sp)

800001cc <i_78>:
800001cc:	010b8333          	add	t1,s7,a6

800001d0 <i_79>:
800001d0:	f7e11403          	lh	s0,-130(sp)

800001d4 <i_80>:
800001d4:	f4a15b83          	lhu	s7,-182(sp)

800001d8 <i_81>:
800001d8:	11810a23          	sb	s8,276(sp)

800001dc <i_82>:
800001dc:	01aa0833          	add	a6,s4,s10

800001e0 <i_83>:
800001e0:	80900c93          	li	s9,-2039

800001e4 <i_84>:
800001e4:	80c00e13          	li	t3,-2036

800001e8 <i_85>:
800001e8:	14e15203          	lhu	tp,334(sp)

800001ec <i_86>:
800001ec:	00828333          	add	t1,t0,s0

800001f0 <i_87>:
800001f0:	001c8c93          	addi	s9,s9,1
800001f4:	ffcceae3          	bltu	s9,t3,800001e8 <i_85>

800001f8 <i_88>:
800001f8:	f5314d03          	lbu	s10,-173(sp)

800001fc <i_89>:
800001fc:	fb211203          	lh	tp,-78(sp)

80000200 <i_90>:
80000200:	06a14d83          	lbu	s11,106(sp)

80000204 <i_91>:
80000204:	ed411023          	sh	s4,-320(sp)

80000208 <i_92>:
80000208:	14a14a03          	lbu	s4,330(sp)

8000020c <i_93>:
8000020c:	1ba11403          	lh	s0,442(sp)

80000210 <i_94>:
80000210:	00200093          	li	ra,2

80000214 <i_95>:
80000214:	4014dcb3          	sra	s9,s1,ra

80000218 <i_96>:
80000218:	015080b3          	add	ra,ra,s5

8000021c <i_97>:
8000021c:	019421b3          	slt	gp,s0,s9

80000220 <i_98>:
80000220:	00800a13          	li	s4,8

80000224 <i_99>:
80000224:	414cdcb3          	sra	s9,s9,s4

80000228 <i_100>:
80000228:	0032fe63          	bleu	gp,t0,80000244 <i_107>

8000022c <i_101>:
8000022c:	01cd80b3          	add	ra,s11,t3

80000230 <i_102>:
80000230:	fd012483          	lw	s1,-48(sp)

80000234 <i_103>:
80000234:	e9c15183          	lhu	gp,-356(sp)

80000238 <i_104>:
80000238:	0170bbb3          	sltu	s7,ra,s7

8000023c <i_105>:
8000023c:	e7811083          	lh	ra,-392(sp)

80000240 <i_106>:
80000240:	035ac063          	blt	s5,s5,80000260 <i_114>

80000244 <i_107>:
80000244:	0090dc63          	ble	s1,ra,8000025c <i_113>

80000248 <i_108>:
80000248:	f68100a3          	sb	s0,-159(sp)

8000024c <i_109>:
8000024c:	f8110ba3          	sb	ra,-105(sp)

80000250 <i_110>:
80000250:	00000013          	nop

80000254 <i_111>:
80000254:	01b9bb33          	sltu	s6,s3,s11

80000258 <i_112>:
80000258:	00000013          	nop

8000025c <i_113>:
8000025c:	00000013          	nop

80000260 <i_114>:
80000260:	76cbc0b7          	lui	ra,0x76cbc

80000264 <i_115>:
80000264:	40560f33          	sub	t5,a2,t0

80000268 <i_116>:
80000268:	7f400793          	li	a5,2036

8000026c <i_117>:
8000026c:	7f700713          	li	a4,2039

80000270 <i_118>:
80000270:	00000013          	nop

80000274 <i_119>:
80000274:	15e12a23          	sw	t5,340(sp)

80000278 <i_120>:
80000278:	09c12d83          	lw	s11,156(sp)

8000027c <i_121>:
8000027c:	00178793          	addi	a5,a5,1
80000280:	fee798e3          	bne	a5,a4,80000270 <i_118>

80000284 <i_122>:
80000284:	00700193          	li	gp,7

80000288 <i_123>:
80000288:	00381f33          	sll	t5,a6,gp

8000028c <i_124>:
8000028c:	06015883          	lhu	a7,96(sp)

80000290 <i_125>:
80000290:	b371e893          	ori	a7,gp,-1225

80000294 <i_126>:
80000294:	02c85263          	ble	a2,a6,800002b8 <i_135>

80000298 <i_127>:
80000298:	0088d863          	ble	s0,a7,800002a8 <i_131>

8000029c <i_128>:
8000029c:	0039d613          	srli	a2,s3,0x3

800002a0 <i_129>:
800002a0:	fcf10c23          	sb	a5,-40(sp)

800002a4 <i_130>:
800002a4:	b8c327b7          	lui	a5,0xb8c32

800002a8 <i_131>:
800002a8:	eae11123          	sh	a4,-350(sp)

800002ac <i_132>:
800002ac:	e2615a83          	lhu	s5,-474(sp)

800002b0 <i_133>:
800002b0:	01bcee63          	bltu	s9,s11,800002cc <i_140>

800002b4 <i_134>:
800002b4:	00d4f4b3          	and	s1,s1,a3

800002b8 <i_135>:
800002b8:	01ffe263          	bltu	t6,t6,800002bc <i_136>

800002bc <i_136>:
800002bc:	00425463          	ble	tp,tp,800002c4 <i_138>

800002c0 <i_137>:
800002c0:	0340f463          	bleu	s4,ra,800002e8 <i_147>

800002c4 <i_138>:
800002c4:	f2a14783          	lbu	a5,-214(sp)

800002c8 <i_139>:
800002c8:	00325e13          	srli	t3,tp,0x3

800002cc <i_140>:
800002cc:	00279a13          	slli	s4,a5,0x2

800002d0 <i_141>:
800002d0:	01c86a63          	bltu	a6,t3,800002e4 <i_146>

800002d4 <i_142>:
800002d4:	03511e23          	sh	s5,60(sp)

800002d8 <i_143>:
800002d8:	01b24e63          	blt	tp,s11,800002f4 <i_150>

800002dc <i_144>:
800002dc:	0dc12e03          	lw	t3,220(sp)

800002e0 <i_145>:
800002e0:	01d97233          	and	tp,s2,t4

800002e4 <i_146>:
800002e4:	01a00093          	li	ra,26

800002e8 <i_147>:
800002e8:	401cde33          	sra	t3,s9,ra

800002ec <i_148>:
800002ec:	01223cb3          	sltu	s9,tp,s2

800002f0 <i_149>:
800002f0:	f53109a3          	sb	s3,-173(sp)

800002f4 <i_150>:
800002f4:	f4111f23          	sh	ra,-162(sp)

800002f8 <i_151>:
800002f8:	6faaac17          	auipc	s8,0x6faaa

800002fc <i_152>:
800002fc:	03b18263          	beq	gp,s11,80000320 <i_161>

80000300 <i_153>:
80000300:	0392c063          	blt	t0,s9,80000320 <i_161>

80000304 <i_154>:
80000304:	01345e63          	ble	s3,s0,80000320 <i_161>

80000308 <i_155>:
80000308:	ee112823          	sw	ra,-272(sp)

8000030c <i_156>:
8000030c:	024dc063          	blt	s11,tp,8000032c <i_164>

80000310 <i_157>:
80000310:	f5d3c213          	xori	tp,t2,-163

80000314 <i_158>:
80000314:	f4111823          	sh	ra,-176(sp)

80000318 <i_159>:
80000318:	08280c13          	addi	s8,a6,130 # be5b2082 <_end+0x3e5a1c6e>

8000031c <i_160>:
8000031c:	02ff1063          	bne	t5,a5,8000033c <i_168>

80000320 <i_161>:
80000320:	eac11083          	lh	ra,-340(sp)

80000324 <i_162>:
80000324:	15c14e83          	lbu	t4,348(sp)

80000328 <i_163>:
80000328:	a11b6513          	ori	a0,s6,-1519

8000032c <i_164>:
8000032c:	0d510523          	sb	s5,202(sp)

80000330 <i_165>:
80000330:	16b11e23          	sh	a1,380(sp)

80000334 <i_166>:
80000334:	02910823          	sb	s1,48(sp)

80000338 <i_167>:
80000338:	e2211503          	lh	a0,-478(sp)

8000033c <i_168>:
8000033c:	fd614c03          	lbu	s8,-42(sp)

80000340 <i_169>:
80000340:	1a412a23          	sw	tp,436(sp)

80000344 <i_170>:
80000344:	0046b533          	sltu	a0,a3,tp

80000348 <i_171>:
80000348:	0f510d83          	lb	s11,245(sp)

8000034c <i_172>:
8000034c:	f9646693          	ori	a3,s0,-106

80000350 <i_173>:
80000350:	053ecd37          	lui	s10,0x53ec

80000354 <i_174>:
80000354:	8a700513          	li	a0,-1881

80000358 <i_175>:
80000358:	8aa00993          	li	s3,-1878

8000035c <i_176>:
8000035c:	00150513          	addi	a0,a0,1
80000360:	ff356ee3          	bltu	a0,s3,8000035c <i_176>

80000364 <i_177>:
80000364:	07b14783          	lbu	a5,123(sp)

80000368 <i_178>:
80000368:	09611203          	lh	tp,150(sp)

8000036c <i_179>:
8000036c:	01f47663          	bleu	t6,s0,80000378 <i_182>

80000370 <i_180>:
80000370:	1dc11923          	sh	t3,466(sp)

80000374 <i_181>:
80000374:	004f5263          	ble	tp,t5,80000378 <i_182>

80000378 <i_182>:
80000378:	41c78333          	sub	t1,a5,t3

8000037c <i_183>:
8000037c:	417c82b3          	sub	t0,s9,s7

80000380 <i_184>:
80000380:	404d5193          	srai	gp,s10,0x4

80000384 <i_185>:
80000384:	4022db93          	srai	s7,t0,0x2

80000388 <i_186>:
80000388:	1c810a83          	lb	s5,456(sp)

8000038c <i_187>:
8000038c:	69020313          	addi	t1,tp,1680 # 690 <main-0x7ffff970>

80000390 <i_188>:
80000390:	081a6093          	ori	ra,s4,129

80000394 <i_189>:
80000394:	0c714883          	lbu	a7,199(sp)

80000398 <i_190>:
80000398:	0150b0b3          	sltu	ra,ra,s5

8000039c <i_191>:
8000039c:	40e50533          	sub	a0,a0,a4

800003a0 <i_192>:
800003a0:	0d014a03          	lbu	s4,208(sp)

800003a4 <i_193>:
800003a4:	ec510ca3          	sb	t0,-295(sp)

800003a8 <i_194>:
800003a8:	40355593          	srai	a1,a0,0x3

800003ac <i_195>:
800003ac:	32ce3713          	sltiu	a4,t3,812

800003b0 <i_196>:
800003b0:	01b4d663          	ble	s11,s1,800003bc <i_199>

800003b4 <i_197>:
800003b4:	002a5c13          	srli	s8,s4,0x2

800003b8 <i_198>:
800003b8:	fe012a83          	lw	s5,-32(sp)

800003bc <i_199>:
800003bc:	f7812b03          	lw	s6,-136(sp)

800003c0 <i_200>:
800003c0:	fbd11123          	sh	t4,-94(sp)

800003c4 <i_201>:
800003c4:	017eceb3          	xor	t4,t4,s7

800003c8 <i_202>:
800003c8:	0161d263          	ble	s6,gp,800003cc <i_203>

800003cc <i_203>:
800003cc:	07f10903          	lb	s2,127(sp)

800003d0 <i_204>:
800003d0:	003a9293          	slli	t0,s5,0x3

800003d4 <i_205>:
800003d4:	e2412a83          	lw	s5,-476(sp)

800003d8 <i_206>:
800003d8:	00534863          	blt	t1,t0,800003e8 <i_210>

800003dc <i_207>:
800003dc:	00365e93          	srli	t4,a2,0x3

800003e0 <i_208>:
800003e0:	e4710603          	lb	a2,-441(sp)

800003e4 <i_209>:
800003e4:	06112423          	sw	ra,104(sp)

800003e8 <i_210>:
800003e8:	02465463          	ble	tp,a2,80000410 <i_220>

800003ec <i_211>:
800003ec:	ebe12023          	sw	t5,-352(sp)

800003f0 <i_212>:
800003f0:	fc012603          	lw	a2,-64(sp)

800003f4 <i_213>:
800003f4:	16c14d83          	lbu	s11,364(sp)

800003f8 <i_214>:
800003f8:	fae15a83          	lhu	s5,-82(sp)

800003fc <i_215>:
800003fc:	17811083          	lh	ra,376(sp)

80000400 <i_216>:
80000400:	09a15e03          	lhu	t3,154(sp)

80000404 <i_217>:
80000404:	02ca8463          	beq	s5,a2,8000042c <i_227>

80000408 <i_218>:
80000408:	f9110a83          	lb	s5,-111(sp)

8000040c <i_219>:
8000040c:	6544fe13          	andi	t3,s1,1620

80000410 <i_220>:
80000410:	02dc6063          	bltu	s8,a3,80000430 <i_228>

80000414 <i_221>:
80000414:	1b910403          	lb	s0,441(sp)

80000418 <i_222>:
80000418:	00600813          	li	a6,6

8000041c <i_223>:
8000041c:	010a9ab3          	sll	s5,s5,a6

80000420 <i_224>:
80000420:	406d8433          	sub	s0,s11,t1

80000424 <i_225>:
80000424:	001c9b93          	slli	s7,s9,0x1

80000428 <i_226>:
80000428:	0f011d23          	sh	a6,250(sp)

8000042c <i_227>:
8000042c:	f3011a83          	lh	s5,-208(sp)

80000430 <i_228>:
80000430:	f4410da3          	sb	tp,-165(sp)

80000434 <i_229>:
80000434:	17b10523          	sb	s11,362(sp)

80000438 <i_230>:
80000438:	02978063          	beq	a5,s1,80000458 <i_238>

8000043c <i_231>:
8000043c:	017b4863          	blt	s6,s7,8000044c <i_235>

80000440 <i_232>:
80000440:	01e45663          	ble	t5,s0,8000044c <i_235>

80000444 <i_233>:
80000444:	e2512223          	sw	t0,-476(sp)

80000448 <i_234>:
80000448:	01867463          	bleu	s8,a2,80000450 <i_236>

8000044c <i_235>:
8000044c:	f3514783          	lbu	a5,-203(sp)

80000450 <i_236>:
80000450:	001b47b3          	xor	a5,s6,ra

80000454 <i_237>:
80000454:	e2714a03          	lbu	s4,-473(sp)

80000458 <i_238>:
80000458:	00808463          	beq	ra,s0,80000460 <i_240>

8000045c <i_239>:
8000045c:	4263b193          	sltiu	gp,t2,1062

80000460 <i_240>:
80000460:	04712e23          	sw	t2,92(sp)

80000464 <i_241>:
80000464:	409c0a33          	sub	s4,s8,s1

80000468 <i_242>:
80000468:	067dbe13          	sltiu	t3,s11,103

8000046c <i_243>:
8000046c:	7a2a0293          	addi	t0,s4,1954

80000470 <i_244>:
80000470:	00dc7a33          	and	s4,s8,a3

80000474 <i_245>:
80000474:	13815e83          	lhu	t4,312(sp)

80000478 <i_246>:
80000478:	00c5c263          	blt	a1,a2,8000047c <i_247>

8000047c <i_247>:
8000047c:	01fd0a33          	add	s4,s10,t6

80000480 <i_248>:
80000480:	f0a14b03          	lbu	s6,-246(sp)

80000484 <i_249>:
80000484:	1d111a23          	sh	a7,468(sp)

80000488 <i_250>:
80000488:	04211e23          	sh	sp,92(sp)

8000048c <i_251>:
8000048c:	48204837          	lui	a6,0x48204

80000490 <i_252>:
80000490:	f6612e23          	sw	t1,-132(sp)

80000494 <i_253>:
80000494:	e3b11c23          	sh	s11,-456(sp)

80000498 <i_254>:
80000498:	01010803          	lb	a6,16(sp)

8000049c <i_255>:
8000049c:	04c10403          	lb	s0,76(sp)

800004a0 <i_256>:
800004a0:	ef215403          	lhu	s0,-270(sp)

800004a4 <i_257>:
800004a4:	08910f03          	lb	t5,137(sp)

800004a8 <i_258>:
800004a8:	15510d83          	lb	s11,341(sp)

800004ac <i_259>:
800004ac:	ef211723          	sh	s2,-274(sp)

800004b0 <i_260>:
800004b0:	7532d437          	lui	s0,0x7532d

800004b4 <i_261>:
800004b4:	00882d33          	slt	s10,a6,s0

800004b8 <i_262>:
800004b8:	09010783          	lb	a5,144(sp)

800004bc <i_263>:
800004bc:	f7111d23          	sh	a7,-134(sp)

800004c0 <i_264>:
800004c0:	fb815d03          	lhu	s10,-72(sp)

800004c4 <i_265>:
800004c4:	00ec30b3          	sltu	ra,s8,a4

800004c8 <i_266>:
800004c8:	19410c83          	lb	s9,404(sp)

800004cc <i_267>:
800004cc:	08012e03          	lw	t3,128(sp)

800004d0 <i_268>:
800004d0:	00321c63          	bne	tp,gp,800004e8 <i_274>

800004d4 <i_269>:
800004d4:	e8a12823          	sw	a0,-368(sp)

800004d8 <i_270>:
800004d8:	02a51463          	bne	a0,a0,80000500 <i_280>

800004dc <i_271>:
800004dc:	e2710b03          	lb	s6,-473(sp)

800004e0 <i_272>:
800004e0:	0064a833          	slt	a6,s1,t1

800004e4 <i_273>:
800004e4:	00000013          	nop

800004e8 <i_274>:
800004e8:	00000013          	nop

800004ec <i_275>:
800004ec:	13415b83          	lhu	s7,308(sp)

800004f0 <i_276>:
800004f0:	00fa8ab3          	add	s5,s5,a5

800004f4 <i_277>:
800004f4:	018b2d33          	slt	s10,s6,s8

800004f8 <i_278>:
800004f8:	00000013          	nop

800004fc <i_279>:
800004fc:	e5510d03          	lb	s10,-427(sp)

80000500 <i_280>:
80000500:	ee012d03          	lw	s10,-288(sp)

80000504 <i_281>:
80000504:	ff211703          	lh	a4,-14(sp)

80000508 <i_282>:
80000508:	7af00213          	li	tp,1967

8000050c <i_283>:
8000050c:	7b100513          	li	a0,1969

80000510 <i_284>:
80000510:	e6110b23          	sb	ra,-394(sp)

80000514 <i_285>:
80000514:	00120213          	addi	tp,tp,1 # 1 <main-0x7fffffff>
80000518:	fe455ce3          	ble	tp,a0,80000510 <i_284>

8000051c <i_286>:
8000051c:	0384d063          	ble	s8,s1,8000053c <i_294>

80000520 <i_287>:
80000520:	a1886c13          	ori	s8,a6,-1512

80000524 <i_288>:
80000524:	6d10ee13          	ori	t3,ra,1745

80000528 <i_289>:
80000528:	0164c0b3          	xor	ra,s1,s6

8000052c <i_290>:
8000052c:	01110b03          	lb	s6,17(sp)

80000530 <i_291>:
80000530:	00000013          	nop

80000534 <i_292>:
80000534:	00221c13          	slli	s8,tp,0x2

80000538 <i_293>:
80000538:	e6f10983          	lb	s3,-401(sp)

8000053c <i_294>:
8000053c:	01d00213          	li	tp,29

80000540 <i_295>:
80000540:	004b15b3          	sll	a1,s6,tp

80000544 <i_296>:
80000544:	82d00b93          	li	s7,-2003

80000548 <i_297>:
80000548:	82f00a93          	li	s5,-2001

8000054c <i_298>:
8000054c:	001907b3          	add	a5,s2,ra

80000550 <i_299>:
80000550:	017df9b3          	and	s3,s11,s7

80000554 <i_300>:
80000554:	001b8b93          	addi	s7,s7,1
80000558:	ff5bcae3          	blt	s7,s5,8000054c <i_298>

8000055c <i_301>:
8000055c:	033b6463          	bltu	s6,s3,80000584 <i_311>

80000560 <i_302>:
80000560:	01e00993          	li	s3,30

80000564 <i_303>:
80000564:	013257b3          	srl	a5,tp,s3

80000568 <i_304>:
80000568:	e7411a23          	sh	s4,-396(sp)

8000056c <i_305>:
8000056c:	e5d11323          	sh	t4,-442(sp)

80000570 <i_306>:
80000570:	41198a33          	sub	s4,s3,a7

80000574 <i_307>:
80000574:	08911d23          	sh	s1,154(sp)

80000578 <i_308>:
80000578:	ed652317          	auipc	t1,0xed652

8000057c <i_309>:
8000057c:	ef011883          	lh	a7,-272(sp)

80000580 <i_310>:
80000580:	e5112c23          	sw	a7,-424(sp)

80000584 <i_311>:
80000584:	19215e03          	lhu	t3,402(sp)

80000588 <i_312>:
80000588:	a4ae7d13          	andi	s10,t3,-1462

8000058c <i_313>:
8000058c:	12615583          	lhu	a1,294(sp)

80000590 <i_314>:
80000590:	04412783          	lw	a5,68(sp)

80000594 <i_315>:
80000594:	13d10e03          	lb	t3,317(sp)

80000598 <i_316>:
80000598:	e6b12423          	sw	a1,-408(sp)

8000059c <i_317>:
8000059c:	ff310583          	lb	a1,-13(sp)

800005a0 <i_318>:
800005a0:	f1c12603          	lw	a2,-228(sp)

800005a4 <i_319>:
800005a4:	6e38d597          	auipc	a1,0x6e38d

800005a8 <i_320>:
800005a8:	19e14903          	lbu	s2,414(sp)

800005ac <i_321>:
800005ac:	009a8e63          	beq	s5,s1,800005c8 <i_328>

800005b0 <i_322>:
800005b0:	00000013          	nop

800005b4 <i_323>:
800005b4:	00165913          	srli	s2,a2,0x1

800005b8 <i_324>:
800005b8:	02e12623          	sw	a4,44(sp)

800005bc <i_325>:
800005bc:	00000013          	nop

800005c0 <i_326>:
800005c0:	12a14703          	lbu	a4,298(sp)

800005c4 <i_327>:
800005c4:	01d9feb3          	and	t4,s3,t4

800005c8 <i_328>:
800005c8:	e4a12e23          	sw	a0,-420(sp)

800005cc <i_329>:
800005cc:	fb414d83          	lbu	s11,-76(sp)

800005d0 <i_330>:
800005d0:	8b900f13          	li	t5,-1863

800005d4 <i_331>:
800005d4:	8bb00493          	li	s1,-1861

800005d8 <i_332>:
800005d8:	ea114d03          	lbu	s10,-351(sp)

800005dc <i_333>:
800005dc:	07414883          	lbu	a7,116(sp)

800005e0 <i_334>:
800005e0:	001f0f13          	addi	t5,t5,1
800005e4:	fe9f4ae3          	blt	t5,s1,800005d8 <i_332>

800005e8 <i_335>:
800005e8:	f1811403          	lh	s0,-232(sp)

800005ec <i_336>:
800005ec:	01911e23          	sh	s9,28(sp)

800005f0 <i_337>:
800005f0:	17111e23          	sh	a7,380(sp)

800005f4 <i_338>:
800005f4:	13312023          	sw	s3,288(sp)

800005f8 <i_339>:
800005f8:	01bffe63          	bleu	s11,t6,80000614 <i_346>

800005fc <i_340>:
800005fc:	19314403          	lbu	s0,403(sp)

80000600 <i_341>:
80000600:	04015403          	lhu	s0,64(sp)

80000604 <i_342>:
80000604:	1b215c83          	lhu	s9,434(sp)

80000608 <i_343>:
80000608:	12211083          	lh	ra,290(sp)

8000060c <i_344>:
8000060c:	1d111923          	sh	a7,466(sp)

80000610 <i_345>:
80000610:	ed214603          	lbu	a2,-302(sp)

80000614 <i_346>:
80000614:	1e814d03          	lbu	s10,488(sp)

80000618 <i_347>:
80000618:	0d411783          	lh	a5,212(sp)

8000061c <i_348>:
8000061c:	89300893          	li	a7,-1901

80000620 <i_349>:
80000620:	89600993          	li	s3,-1898

80000624 <i_350>:
80000624:	e7211b03          	lh	s6,-398(sp)

80000628 <i_351>:
80000628:	04110723          	sb	ra,78(sp)

8000062c <i_352>:
8000062c:	008d6e63          	bltu	s10,s0,80000648 <i_358>

80000630 <i_353>:
80000630:	002100a3          	sb	sp,1(sp)

80000634 <i_354>:
80000634:	15a15803          	lhu	a6,346(sp)

80000638 <i_355>:
80000638:	00188893          	addi	a7,a7,1
8000063c:	ff19f4e3          	bleu	a7,s3,80000624 <i_350>

80000640 <i_356>:
80000640:	00168a63          	beq	a3,ra,80000654 <i_361>

80000644 <i_357>:
80000644:	12215803          	lhu	a6,290(sp)

80000648 <i_358>:
80000648:	1d010c03          	lb	s8,464(sp)

8000064c <i_359>:
8000064c:	49337c13          	andi	s8,t1,1171

80000650 <i_360>:
80000650:	f3012d03          	lw	s10,-208(sp)

80000654 <i_361>:
80000654:	01e00813          	li	a6,30

80000658 <i_362>:
80000658:	01079933          	sll	s2,a5,a6

8000065c <i_363>:
8000065c:	79900713          	li	a4,1945

80000660 <i_364>:
80000660:	79b00093          	li	ra,1947

80000664 <i_365>:
80000664:	f7c10583          	lb	a1,-132(sp)

80000668 <i_366>:
80000668:	07812303          	lw	t1,120(sp)

8000066c <i_367>:
8000066c:	00170713          	addi	a4,a4,1
80000670:	fe174ae3          	blt	a4,ra,80000664 <i_365>

80000674 <i_368>:
80000674:	f45d6493          	ori	s1,s10,-187

80000678 <i_369>:
80000678:	ea412b03          	lw	s6,-348(sp)

8000067c <i_370>:
8000067c:	f1711e23          	sh	s7,-228(sp)

80000680 <i_371>:
80000680:	04c14603          	lbu	a2,76(sp)

80000684 <i_372>:
80000684:	8ad00493          	li	s1,-1875

80000688 <i_373>:
80000688:	8af00593          	li	a1,-1873

8000068c <i_374>:
8000068c:	00800a93          	li	s5,8

80000690 <i_375>:
80000690:	01585333          	srl	t1,a6,s5

80000694 <i_376>:
80000694:	e4215b83          	lhu	s7,-446(sp)

80000698 <i_377>:
80000698:	0143d463          	ble	s4,t2,800006a0 <i_379>

8000069c <i_378>:
8000069c:	0ca14d83          	lbu	s11,202(sp)

800006a0 <i_379>:
800006a0:	017e7263          	bleu	s7,t3,800006a4 <i_380>

800006a4 <i_380>:
800006a4:	0c615d83          	lhu	s11,198(sp)

800006a8 <i_381>:
800006a8:	e9314d83          	lbu	s11,-365(sp)

800006ac <i_382>:
800006ac:	03411b83          	lh	s7,52(sp)

800006b0 <i_383>:
800006b0:	007afe63          	bleu	t2,s5,800006cc <i_389>

800006b4 <i_384>:
800006b4:	01b36a63          	bltu	t1,s11,800006c8 <i_388>

800006b8 <i_385>:
800006b8:	00148493          	addi	s1,s1,1
800006bc:	fc95f8e3          	bleu	s1,a1,8000068c <i_374>

800006c0 <i_386>:
800006c0:	e3512c23          	sw	s5,-456(sp)

800006c4 <i_387>:
800006c4:	00000013          	nop

800006c8 <i_388>:
800006c8:	01f00293          	li	t0,31

800006cc <i_389>:
800006cc:	00535433          	srl	s0,t1,t0

800006d0 <i_390>:
800006d0:	11dce313          	ori	t1,s9,285

800006d4 <i_391>:
800006d4:	77800d13          	li	s10,1912

800006d8 <i_392>:
800006d8:	77b00d93          	li	s11,1915

800006dc <i_393>:
800006dc:	2bd37313          	andi	t1,t1,701

800006e0 <i_394>:
800006e0:	001d0d13          	addi	s10,s10,1 # 53ec001 <main-0x7ac13fff>
800006e4:	ffaddce3          	ble	s10,s11,800006dc <i_393>

800006e8 <i_395>:
800006e8:	0b215303          	lhu	t1,178(sp)

800006ec <i_396>:
800006ec:	658fc6b7          	lui	a3,0x658fc

800006f0 <i_397>:
800006f0:	0bc11523          	sh	t3,170(sp)

800006f4 <i_398>:
800006f4:	00d00813          	li	a6,13

800006f8 <i_399>:
800006f8:	01021ab3          	sll	s5,tp,a6

800006fc <i_400>:
800006fc:	8a6a2813          	slti	a6,s4,-1882

80000700 <i_401>:
80000700:	40368d33          	sub	s10,a3,gp

80000704 <i_402>:
80000704:	0d812503          	lw	a0,216(sp)

80000708 <i_403>:
80000708:	00abb533          	sltu	a0,s7,a0

8000070c <i_404>:
8000070c:	b3890813          	addi	a6,s2,-1224 # 5bacd8 <main-0x7fa45328>

80000710 <i_405>:
80000710:	fab12223          	sw	a1,-92(sp)

80000714 <i_406>:
80000714:	19011403          	lh	s0,400(sp)

80000718 <i_407>:
80000718:	ed615903          	lhu	s2,-298(sp)

8000071c <i_408>:
8000071c:	f10105a3          	sb	a6,-245(sp)

80000720 <i_409>:
80000720:	0ce10183          	lb	gp,206(sp)

80000724 <i_410>:
80000724:	0f25f713          	andi	a4,a1,242

80000728 <i_411>:
80000728:	12f12e23          	sw	a5,316(sp)

8000072c <i_412>:
8000072c:	009684b3          	add	s1,a3,s1

80000730 <i_413>:
80000730:	58877793          	andi	a5,a4,1416

80000734 <i_414>:
80000734:	13210783          	lb	a5,306(sp)

80000738 <i_415>:
80000738:	00e10323          	sb	a4,6(sp)

8000073c <i_416>:
8000073c:	89f1f493          	andi	s1,gp,-1889

80000740 <i_417>:
80000740:	7aa00713          	li	a4,1962

80000744 <i_418>:
80000744:	7ac00793          	li	a5,1964

80000748 <i_419>:
80000748:	02ecd263          	ble	a4,s9,8000076c <i_427>

8000074c <i_420>:
8000074c:	00170713          	addi	a4,a4,1
80000750:	fee79ce3          	bne	a5,a4,80000748 <i_419>

80000754 <i_421>:
80000754:	f2e102a3          	sb	a4,-219(sp)

80000758 <i_422>:
80000758:	ffc14783          	lbu	a5,-4(sp)

8000075c <i_423>:
8000075c:	f3910523          	sb	s9,-214(sp)

80000760 <i_424>:
80000760:	40215513          	srai	a0,sp,0x2

80000764 <i_425>:
80000764:	01200793          	li	a5,18

80000768 <i_426>:
80000768:	00f29733          	sll	a4,t0,a5

8000076c <i_427>:
8000076c:	d1443413          	sltiu	s0,s0,-748

80000770 <i_428>:
80000770:	fa610683          	lb	a3,-90(sp)

80000774 <i_429>:
80000774:	00dc0663          	beq	s8,a3,80000780 <i_432>

80000778 <i_430>:
80000778:	6b4fc493          	xori	s1,t6,1716

8000077c <i_431>:
8000077c:	02877463          	bleu	s0,a4,800007a4 <i_441>

80000780 <i_432>:
80000780:	035bf463          	bleu	s5,s7,800007a8 <i_442>

80000784 <i_433>:
80000784:	e4c12e03          	lw	t3,-436(sp)

80000788 <i_434>:
80000788:	0ba14b83          	lbu	s7,186(sp)

8000078c <i_435>:
8000078c:	13c12d03          	lw	s10,316(sp)

80000790 <i_436>:
80000790:	f2711f23          	sh	t2,-194(sp)

80000794 <i_437>:
80000794:	e6011303          	lh	t1,-416(sp)

80000798 <i_438>:
80000798:	01c00313          	li	t1,28

8000079c <i_439>:
8000079c:	406cd533          	sra	a0,s9,t1

800007a0 <i_440>:
800007a0:	eb411583          	lh	a1,-332(sp)

800007a4 <i_441>:
800007a4:	1e766597          	auipc	a1,0x1e766

800007a8 <i_442>:
800007a8:	18011d03          	lh	s10,384(sp)

800007ac <i_443>:
800007ac:	1ae11a83          	lh	s5,430(sp)

800007b0 <i_444>:
800007b0:	006fc433          	xor	s0,t6,t1

800007b4 <i_445>:
800007b4:	1ee10023          	sb	a4,480(sp)

800007b8 <i_446>:
800007b8:	f3310603          	lb	a2,-205(sp)

800007bc <i_447>:
800007bc:	40fe06b3          	sub	a3,t3,a5

800007c0 <i_448>:
800007c0:	07611b23          	sh	s6,118(sp)

800007c4 <i_449>:
800007c4:	0b5102a3          	sb	s5,165(sp)

800007c8 <i_450>:
800007c8:	01aa9a63          	bne	s5,s10,800007dc <i_455>

800007cc <i_451>:
800007cc:	04114583          	lbu	a1,65(sp)

800007d0 <i_452>:
800007d0:	fed14283          	lbu	t0,-19(sp)

800007d4 <i_453>:
800007d4:	14812823          	sw	s0,336(sp)

800007d8 <i_454>:
800007d8:	1d911e23          	sh	s9,476(sp)

800007dc <i_455>:
800007dc:	00400a93          	li	s5,4

800007e0 <i_456>:
800007e0:	01559eb3          	sll	t4,a1,s5

800007e4 <i_457>:
800007e4:	00b6fa63          	bleu	a1,a3,800007f8 <i_462>

800007e8 <i_458>:
800007e8:	e3c12203          	lw	tp,-452(sp)

800007ec <i_459>:
800007ec:	5705ac13          	slti	s8,a1,1392

800007f0 <i_460>:
800007f0:	f5811b03          	lh	s6,-168(sp)

800007f4 <i_461>:
800007f4:	ea6b4193          	xori	gp,s6,-346

800007f8 <i_462>:
800007f8:	03024063          	blt	tp,a6,80000818 <i_470>

800007fc <i_463>:
800007fc:	06eaf593          	andi	a1,s5,110

80000800 <i_464>:
80000800:	06e14b83          	lbu	s7,110(sp)

80000804 <i_465>:
80000804:	1a011803          	lh	a6,416(sp)

80000808 <i_466>:
80000808:	f0910023          	sb	s1,-256(sp)

8000080c <i_467>:
8000080c:	00ffc433          	xor	s0,t6,a5

80000810 <i_468>:
80000810:	00bbec63          	bltu	s7,a1,80000828 <i_474>

80000814 <i_469>:
80000814:	00724a63          	blt	tp,t2,80000828 <i_474>

80000818 <i_470>:
80000818:	19014403          	lbu	s0,400(sp)

8000081c <i_471>:
8000081c:	0092e663          	bltu	t0,s1,80000828 <i_474>

80000820 <i_472>:
80000820:	e2014483          	lbu	s1,-480(sp)

80000824 <i_473>:
80000824:	ec412483          	lw	s1,-316(sp)

80000828 <i_474>:
80000828:	e5615e83          	lhu	t4,-426(sp)

8000082c <i_475>:
8000082c:	003b0533          	add	a0,s6,gp

80000830 <i_476>:
80000830:	0e314e03          	lbu	t3,227(sp)

80000834 <i_477>:
80000834:	ea615503          	lhu	a0,-346(sp)

80000838 <i_478>:
80000838:	0b214a03          	lbu	s4,178(sp)

8000083c <i_479>:
8000083c:	15012983          	lw	s3,336(sp)

80000840 <i_480>:
80000840:	0099c9b3          	xor	s3,s3,s1

80000844 <i_481>:
80000844:	ea511123          	sh	t0,-350(sp)

80000848 <i_482>:
80000848:	006100a3          	sb	t1,1(sp)

8000084c <i_483>:
8000084c:	16489837          	lui	a6,0x16489

80000850 <i_484>:
80000850:	413c84b3          	sub	s1,s9,s3

80000854 <i_485>:
80000854:	00b00a93          	li	s5,11

80000858 <i_486>:
80000858:	4159de33          	sra	t3,s3,s5

8000085c <i_487>:
8000085c:	e9012483          	lw	s1,-368(sp)

80000860 <i_488>:
80000860:	00760463          	beq	a2,t2,80000868 <i_490>

80000864 <i_489>:
80000864:	01035e63          	ble	a6,t1,80000880 <i_496>

80000868 <i_490>:
80000868:	15c12703          	lw	a4,348(sp)

8000086c <i_491>:
8000086c:	fd310983          	lb	s3,-45(sp)

80000870 <i_492>:
80000870:	14510083          	lb	ra,325(sp)

80000874 <i_493>:
80000874:	0063b9b3          	sltu	s3,t2,t1

80000878 <i_494>:
80000878:	0c814303          	lbu	t1,200(sp)

8000087c <i_495>:
8000087c:	fce15b03          	lhu	s6,-50(sp)

80000880 <i_496>:
80000880:	01340663          	beq	s0,s3,8000088c <i_499>

80000884 <i_497>:
80000884:	05110203          	lb	tp,81(sp)

80000888 <i_498>:
80000888:	0138f433          	and	s0,a7,s3

8000088c <i_499>:
8000088c:	e6610583          	lb	a1,-410(sp)

80000890 <i_500>:
80000890:	18710b83          	lb	s7,391(sp)

80000894 <i_501>:
80000894:	02e15883          	lhu	a7,46(sp)

80000898 <i_502>:
80000898:	0da101a3          	sb	s10,195(sp)

8000089c <i_503>:
8000089c:	e9a12e23          	sw	s10,-356(sp)

800008a0 <i_504>:
800008a0:	05914e83          	lbu	t4,89(sp)

800008a4 <i_505>:
800008a4:	eee10e03          	lb	t3,-274(sp)

800008a8 <i_506>:
800008a8:	0123e833          	or	a6,t2,s2

800008ac <i_507>:
800008ac:	f2f14083          	lbu	ra,-209(sp)

800008b0 <i_508>:
800008b0:	77200d13          	li	s10,1906

800008b4 <i_509>:
800008b4:	77500893          	li	a7,1909

800008b8 <i_510>:
800008b8:	001d0d13          	addi	s10,s10,1
800008bc:	ff1d1ee3          	bne	s10,a7,800008b8 <i_510>

800008c0 <i_511>:
800008c0:	f2c15e83          	lhu	t4,-212(sp)

800008c4 <i_512>:
800008c4:	15311323          	sh	s3,326(sp)

800008c8 <i_513>:
800008c8:	0a211703          	lh	a4,162(sp)

800008cc <i_514>:
800008cc:	7a500e13          	li	t3,1957

800008d0 <i_515>:
800008d0:	7a900d93          	li	s11,1961

800008d4 <i_516>:
800008d4:	1e211283          	lh	t0,482(sp)

800008d8 <i_517>:
800008d8:	e63ec793          	xori	a5,t4,-413

800008dc <i_518>:
800008dc:	e8c12d03          	lw	s10,-372(sp)

800008e0 <i_519>:
800008e0:	e1a14203          	lbu	tp,-486(sp)

800008e4 <i_520>:
800008e4:	8a9a6213          	ori	tp,s4,-1879

800008e8 <i_521>:
800008e8:	00451a13          	slli	s4,a0,0x4

800008ec <i_522>:
800008ec:	f0611a03          	lh	s4,-250(sp)

800008f0 <i_523>:
800008f0:	001e0e13          	addi	t3,t3,1
800008f4:	ffcd90e3          	bne	s11,t3,800008d4 <i_516>

800008f8 <i_524>:
800008f8:	08612223          	sw	t1,132(sp)

800008fc <i_525>:
800008fc:	01117a33          	and	s4,sp,a7

80000900 <i_526>:
80000900:	e8e11603          	lh	a2,-370(sp)

80000904 <i_527>:
80000904:	01f20d33          	add	s10,tp,t6

80000908 <i_528>:
80000908:	f0f14a03          	lbu	s4,-241(sp)

8000090c <i_529>:
8000090c:	16910b23          	sb	s1,374(sp)

80000910 <i_530>:
80000910:	10812d03          	lw	s10,264(sp)

80000914 <i_531>:
80000914:	f0c12b03          	lw	s6,-244(sp)

80000918 <i_532>:
80000918:	f4812703          	lw	a4,-184(sp)

8000091c <i_533>:
8000091c:	0ae15683          	lhu	a3,174(sp)

80000920 <i_534>:
80000920:	02f2e463          	bltu	t0,a5,80000948 <i_544>

80000924 <i_535>:
80000924:	00269e13          	slli	t3,a3,0x2

80000928 <i_536>:
80000928:	01a20433          	add	s0,tp,s10

8000092c <i_537>:
8000092c:	e4710a83          	lb	s5,-441(sp)

80000930 <i_538>:
80000930:	00c68e33          	add	t3,a3,a2

80000934 <i_539>:
80000934:	ed812e03          	lw	t3,-296(sp)

80000938 <i_540>:
80000938:	05a11703          	lh	a4,90(sp)

8000093c <i_541>:
8000093c:	271cac93          	slti	s9,s9,625

80000940 <i_542>:
80000940:	c0645897          	auipc	a7,0xc0645

80000944 <i_543>:
80000944:	019bc733          	xor	a4,s7,s9

80000948 <i_544>:
80000948:	4038dc93          	srai	s9,a7,0x3

8000094c <i_545>:
8000094c:	e697b797          	auipc	a5,0xe697b

80000950 <i_546>:
80000950:	03a10603          	lb	a2,58(sp)

80000954 <i_547>:
80000954:	f5214c03          	lbu	s8,-174(sp)

80000958 <i_548>:
80000958:	00a00493          	li	s1,10

8000095c <i_549>:
8000095c:	409e5cb3          	sra	s9,t3,s1

80000960 <i_550>:
80000960:	014ccc63          	blt	s9,s4,80000978 <i_556>

80000964 <i_551>:
80000964:	12d14883          	lbu	a7,301(sp)

80000968 <i_552>:
80000968:	e2510f03          	lb	t5,-475(sp)

8000096c <i_553>:
8000096c:	ccc7aab7          	lui	s5,0xccc7a

80000970 <i_554>:
80000970:	f1012183          	lw	gp,-240(sp)

80000974 <i_555>:
80000974:	01d12223          	sw	t4,4(sp)

80000978 <i_556>:
80000978:	11e11c83          	lh	s9,286(sp)

8000097c <i_557>:
8000097c:	6d7be213          	ori	tp,s7,1751

80000980 <i_558>:
80000980:	01930a63          	beq	t1,s9,80000994 <i_563>

80000984 <i_559>:
80000984:	00339c93          	slli	s9,t2,0x3

80000988 <i_560>:
80000988:	00fdc463          	blt	s11,a5,80000990 <i_562>

8000098c <i_561>:
8000098c:	12514303          	lbu	t1,293(sp)

80000990 <i_562>:
80000990:	00aa5a63          	ble	a0,s4,800009a4 <i_567>

80000994 <i_563>:
80000994:	03aec063          	blt	t4,s10,800009b4 <i_571>

80000998 <i_564>:
80000998:	00d90263          	beq	s2,a3,8000099c <i_565>

8000099c <i_565>:
8000099c:	01b87933          	and	s2,a6,s11

800009a0 <i_566>:
800009a0:	001f9d93          	slli	s11,t6,0x1

800009a4 <i_567>:
800009a4:	03731463          	bne	t1,s7,800009cc <i_577>

800009a8 <i_568>:
800009a8:	0bc12d03          	lw	s10,188(sp)

800009ac <i_569>:
800009ac:	01ad1463          	bne	s10,s10,800009b4 <i_571>

800009b0 <i_570>:
800009b0:	e3111423          	sh	a7,-472(sp)

800009b4 <i_571>:
800009b4:	27c47593          	andi	a1,s0,636

800009b8 <i_572>:
800009b8:	01bde0b3          	or	ra,s11,s11

800009bc <i_573>:
800009bc:	00b09e63          	bne	ra,a1,800009d8 <i_580>

800009c0 <i_574>:
800009c0:	01c60263          	beq	a2,t3,800009c4 <i_575>

800009c4 <i_575>:
800009c4:	e7210583          	lb	a1,-398(sp)

800009c8 <i_576>:
800009c8:	dc8dcd13          	xori	s10,s11,-568

800009cc <i_577>:
800009cc:	00000013          	nop

800009d0 <i_578>:
800009d0:	c4310d93          	addi	s11,sp,-957

800009d4 <i_579>:
800009d4:	08c15f03          	lhu	t5,140(sp)

800009d8 <i_580>:
800009d8:	01d00913          	li	s2,29

800009dc <i_581>:
800009dc:	012dd7b3          	srl	a5,s11,s2

800009e0 <i_582>:
800009e0:	7cb00d13          	li	s10,1995

800009e4 <i_583>:
800009e4:	7cd00413          	li	s0,1997

800009e8 <i_584>:
800009e8:	001d0d13          	addi	s10,s10,1
800009ec:	fe8d4ee3          	blt	s10,s0,800009e8 <i_584>

800009f0 <i_585>:
800009f0:	00265c93          	srli	s9,a2,0x2

800009f4 <i_586>:
800009f4:	00500f13          	li	t5,5

800009f8 <i_587>:
800009f8:	01ee14b3          	sll	s1,t3,t5

800009fc <i_588>:
800009fc:	07deeb13          	ori	s6,t4,125

80000a00 <i_589>:
80000a00:	19011c83          	lh	s9,400(sp)

80000a04 <i_590>:
80000a04:	002dd493          	srli	s1,s11,0x2

80000a08 <i_591>:
80000a08:	0ac12483          	lw	s1,172(sp)

80000a0c <i_592>:
80000a0c:	fc311b23          	sh	gp,-42(sp)

80000a10 <i_593>:
80000a10:	fef12c23          	sw	a5,-8(sp)

80000a14 <i_594>:
80000a14:	00211e13          	slli	t3,sp,0x2

80000a18 <i_595>:
80000a18:	78100093          	li	ra,1921

80000a1c <i_596>:
80000a1c:	78500213          	li	tp,1925

80000a20 <i_597>:
80000a20:	00108093          	addi	ra,ra,1 # 76cbc001 <main-0x9343fff>
80000a24:	fe40cee3          	blt	ra,tp,80000a20 <i_597>

80000a28 <i_598>:
80000a28:	012de863          	bltu	s11,s2,80000a38 <i_602>

80000a2c <i_599>:
80000a2c:	f0710303          	lb	t1,-249(sp)

80000a30 <i_600>:
80000a30:	01800793          	li	a5,24

80000a34 <i_601>:
80000a34:	40fe5db3          	sra	s11,t3,a5

80000a38 <i_602>:
80000a38:	04612223          	sw	t1,68(sp)

80000a3c <i_603>:
80000a3c:	03912223          	sw	s9,36(sp)

80000a40 <i_604>:
80000a40:	03014303          	lbu	t1,48(sp)

80000a44 <i_605>:
80000a44:	1094cc93          	xori	s9,s1,265

80000a48 <i_606>:
80000a48:	eb821317          	auipc	t1,0xeb821

80000a4c <i_607>:
80000a4c:	0087ed33          	or	s10,a5,s0

80000a50 <i_608>:
80000a50:	0170cdb3          	xor	s11,ra,s7

80000a54 <i_609>:
80000a54:	005d3533          	sltu	a0,s10,t0

80000a58 <i_610>:
80000a58:	83c00293          	li	t0,-1988

80000a5c <i_611>:
80000a5c:	84000593          	li	a1,-1984

80000a60 <i_612>:
80000a60:	00000013          	nop

80000a64 <i_613>:
80000a64:	fd811503          	lh	a0,-40(sp)

80000a68 <i_614>:
80000a68:	7aa6f713          	andi	a4,a3,1962

80000a6c <i_615>:
80000a6c:	001b3e33          	sltu	t3,s6,ra

80000a70 <i_616>:
80000a70:	00128293          	addi	t0,t0,1 # 3001 <main-0x7fffcfff>
80000a74:	feb2e6e3          	bltu	t0,a1,80000a60 <i_612>

80000a78 <i_617>:
80000a78:	0c015883          	lhu	a7,192(sp)

80000a7c <i_618>:
80000a7c:	0108fcb3          	and	s9,a7,a6

80000a80 <i_619>:
80000a80:	0cb11323          	sh	a1,198(sp)

80000a84 <i_620>:
80000a84:	08c12203          	lw	tp,140(sp)

80000a88 <i_621>:
80000a88:	00e00c93          	li	s9,14

80000a8c <i_622>:
80000a8c:	019dd5b3          	srl	a1,s11,s9

80000a90 <i_623>:
80000a90:	004b9a63          	bne	s7,tp,80000aa4 <i_628>

80000a94 <i_624>:
80000a94:	00d26863          	bltu	tp,a3,80000aa4 <i_628>

80000a98 <i_625>:
80000a98:	00700513          	li	a0,7

80000a9c <i_626>:
80000a9c:	00ab1933          	sll	s2,s6,a0

80000aa0 <i_627>:
80000aa0:	21957293          	andi	t0,a0,537

80000aa4 <i_628>:
80000aa4:	f7d10fa3          	sb	t4,-129(sp)

80000aa8 <i_629>:
80000aa8:	e5710283          	lb	t0,-425(sp)

80000aac <i_630>:
80000aac:	b8c5b513          	sltiu	a0,a1,-1140

80000ab0 <i_631>:
80000ab0:	b4c52613          	slti	a2,a0,-1204

80000ab4 <i_632>:
80000ab4:	0055cc63          	blt	a1,t0,80000acc <i_638>

80000ab8 <i_633>:
80000ab8:	00300413          	li	s0,3

80000abc <i_634>:
80000abc:	0082d633          	srl	a2,t0,s0

80000ac0 <i_635>:
80000ac0:	01dbf5b3          	and	a1,s7,t4

80000ac4 <i_636>:
80000ac4:	e1c12983          	lw	s3,-484(sp)

80000ac8 <i_637>:
80000ac8:	e2012303          	lw	t1,-480(sp)

80000acc <i_638>:
80000acc:	ff011723          	sh	a6,-18(sp)

80000ad0 <i_639>:
80000ad0:	01f779b3          	and	s3,a4,t6

80000ad4 <i_640>:
80000ad4:	1ae11603          	lh	a2,430(sp)

80000ad8 <i_641>:
80000ad8:	02bae263          	bltu	s5,a1,80000afc <i_650>

80000adc <i_642>:
80000adc:	02661063          	bne	a2,t1,80000afc <i_650>

80000ae0 <i_643>:
80000ae0:	f1a10083          	lb	ra,-230(sp)

80000ae4 <i_644>:
80000ae4:	13a102a3          	sb	s10,293(sp)

80000ae8 <i_645>:
80000ae8:	e8210503          	lb	a0,-382(sp)

80000aec <i_646>:
80000aec:	19012303          	lw	t1,400(sp)

80000af0 <i_647>:
80000af0:	ea711e23          	sh	t2,-324(sp)

80000af4 <i_648>:
80000af4:	00385a63          	ble	gp,a6,80000b08 <i_653>

80000af8 <i_649>:
80000af8:	f7410783          	lb	a5,-140(sp)

80000afc <i_650>:
80000afc:	e6712023          	sw	t2,-416(sp)

80000b00 <i_651>:
80000b00:	6b80eb93          	ori	s7,ra,1720

80000b04 <i_652>:
80000b04:	f9012883          	lw	a7,-112(sp)

80000b08 <i_653>:
80000b08:	ea910883          	lb	a7,-343(sp)

80000b0c <i_654>:
80000b0c:	02bb1063          	bne	s6,a1,80000b2c <i_662>

80000b10 <i_655>:
80000b10:	f0212223          	sw	sp,-252(sp)

80000b14 <i_656>:
80000b14:	1ba11083          	lh	ra,442(sp)

80000b18 <i_657>:
80000b18:	0a9106a3          	sb	s1,173(sp)

80000b1c <i_658>:
80000b1c:	02186463          	bltu	a6,ra,80000b44 <i_668>

80000b20 <i_659>:
80000b20:	76648493          	addi	s1,s1,1894

80000b24 <i_660>:
80000b24:	ff110d83          	lb	s11,-15(sp)

80000b28 <i_661>:
80000b28:	0093a533          	slt	a0,t2,s1

80000b2c <i_662>:
80000b2c:	0ce11683          	lh	a3,206(sp)

80000b30 <i_663>:
80000b30:	014b8433          	add	s0,s7,s4

80000b34 <i_664>:
80000b34:	01500993          	li	s3,21

80000b38 <i_665>:
80000b38:	013816b3          	sll	a3,a6,s3

80000b3c <i_666>:
80000b3c:	0324f063          	bleu	s2,s1,80000b5c <i_674>

80000b40 <i_667>:
80000b40:	e2012903          	lw	s2,-480(sp)

80000b44 <i_668>:
80000b44:	0ba12023          	sw	s10,160(sp)

80000b48 <i_669>:
80000b48:	08a15983          	lhu	s3,138(sp)

80000b4c <i_670>:
80000b4c:	05010f23          	sb	a6,94(sp)

80000b50 <i_671>:
80000b50:	016e05b3          	add	a1,t3,s6

80000b54 <i_672>:
80000b54:	0138b9b3          	sltu	s3,a7,s3

80000b58 <i_673>:
80000b58:	0b012883          	lw	a7,176(sp)

80000b5c <i_674>:
80000b5c:	e8e15303          	lhu	t1,-370(sp)

80000b60 <i_675>:
80000b60:	ee211b23          	sh	sp,-266(sp)

80000b64 <i_676>:
80000b64:	1bc10ba3          	sb	t3,439(sp)

80000b68 <i_677>:
80000b68:	f4815c03          	lhu	s8,-184(sp)

80000b6c <i_678>:
80000b6c:	1e614883          	lbu	a7,486(sp)

80000b70 <i_679>:
80000b70:	0132fe63          	bleu	s3,t0,80000b8c <i_686>

80000b74 <i_680>:
80000b74:	ff211203          	lh	tp,-14(sp)

80000b78 <i_681>:
80000b78:	48568893          	addi	a7,a3,1157 # 658fc485 <main-0x1a703b7b>

80000b7c <i_682>:
80000b7c:	4e58c593          	xori	a1,a7,1253

80000b80 <i_683>:
80000b80:	00e00593          	li	a1,14

80000b84 <i_684>:
80000b84:	40b4d233          	sra	tp,s1,a1

80000b88 <i_685>:
80000b88:	07712823          	sw	s7,112(sp)

80000b8c <i_686>:
80000b8c:	02511523          	sh	t0,42(sp)

80000b90 <i_687>:
80000b90:	02b21463          	bne	tp,a1,80000bb8 <i_697>

80000b94 <i_688>:
80000b94:	01c4c663          	blt	s1,t3,80000ba0 <i_691>

80000b98 <i_689>:
80000b98:	0035f1b3          	and	gp,a1,gp

80000b9c <i_690>:
80000b9c:	05214a03          	lbu	s4,82(sp)

80000ba0 <i_691>:
80000ba0:	fa6ac713          	xori	a4,s5,-90

80000ba4 <i_692>:
80000ba4:	e8e11083          	lh	ra,-370(sp)

80000ba8 <i_693>:
80000ba8:	eef11623          	sh	a5,-276(sp)

80000bac <i_694>:
80000bac:	18f14a83          	lbu	s5,399(sp)

80000bb0 <i_695>:
80000bb0:	ef710683          	lb	a3,-265(sp)

80000bb4 <i_696>:
80000bb4:	4032d313          	srai	t1,t0,0x3

80000bb8 <i_697>:
80000bb8:	635a77b7          	lui	a5,0x635a7

80000bbc <i_698>:
80000bbc:	fe114683          	lbu	a3,-31(sp)

80000bc0 <i_699>:
80000bc0:	00bd86b3          	add	a3,s11,a1

80000bc4 <i_700>:
80000bc4:	15615d83          	lhu	s11,342(sp)

80000bc8 <i_701>:
80000bc8:	86c00793          	li	a5,-1940

80000bcc <i_702>:
80000bcc:	87000313          	li	t1,-1936

80000bd0 <i_703>:
80000bd0:	cd4a7d93          	andi	s11,s4,-812

80000bd4 <i_704>:
80000bd4:	014f8a33          	add	s4,t6,s4

80000bd8 <i_705>:
80000bd8:	ef714603          	lbu	a2,-265(sp)

80000bdc <i_706>:
80000bdc:	01200093          	li	ra,18

80000be0 <i_707>:
80000be0:	00165cb3          	srl	s9,a2,ra

80000be4 <i_708>:
80000be4:	e4012c03          	lw	s8,-448(sp)

80000be8 <i_709>:
80000be8:	405a00b3          	sub	ra,s4,t0

80000bec <i_710>:
80000bec:	00178793          	addi	a5,a5,1 # 635a7001 <main-0x1ca58fff>
80000bf0:	fef350e3          	ble	a5,t1,80000bd0 <i_703>

80000bf4 <i_711>:
80000bf4:	01db1863          	bne	s6,t4,80000c04 <i_715>

80000bf8 <i_712>:
80000bf8:	00fa4463          	blt	s4,a5,80000c00 <i_714>

80000bfc <i_713>:
80000bfc:	13c12603          	lw	a2,316(sp)

80000c00 <i_714>:
80000c00:	c14a2b13          	slti	s6,s4,-1004

80000c04 <i_715>:
80000c04:	00114663          	blt	sp,ra,80000c10 <i_718>

80000c08 <i_716>:
80000c08:	0c012b03          	lw	s6,192(sp)

80000c0c <i_717>:
80000c0c:	10111423          	sh	ra,264(sp)

80000c10 <i_718>:
80000c10:	034c1463          	bne	s8,s4,80000c38 <i_728>

80000c14 <i_719>:
80000c14:	010d1a63          	bne	s10,a6,80000c28 <i_724>

80000c18 <i_720>:
80000c18:	407c0733          	sub	a4,s8,t2

80000c1c <i_721>:
80000c1c:	f2215e83          	lhu	t4,-222(sp)

80000c20 <i_722>:
80000c20:	15215583          	lhu	a1,338(sp)

80000c24 <i_723>:
80000c24:	d9220213          	addi	tp,tp,-622 # fffffd92 <_end+0x7ffef97e>

80000c28 <i_724>:
80000c28:	f2c14083          	lbu	ra,-212(sp)

80000c2c <i_725>:
80000c2c:	00b402b3          	add	t0,s0,a1

80000c30 <i_726>:
80000c30:	e6c12683          	lw	a3,-404(sp)

80000c34 <i_727>:
80000c34:	e5a10283          	lb	t0,-422(sp)

80000c38 <i_728>:
80000c38:	1ae11f03          	lh	t5,430(sp)

80000c3c <i_729>:
80000c3c:	01e15283          	lhu	t0,30(sp)

80000c40 <i_730>:
80000c40:	89600793          	li	a5,-1898

80000c44 <i_731>:
80000c44:	89900c93          	li	s9,-1895

80000c48 <i_732>:
80000c48:	e4812a83          	lw	s5,-440(sp)

80000c4c <i_733>:
80000c4c:	f3812403          	lw	s0,-200(sp)

80000c50 <i_734>:
80000c50:	00178793          	addi	a5,a5,1
80000c54:	fefcfae3          	bleu	a5,s9,80000c48 <i_732>

80000c58 <i_735>:
80000c58:	10311f23          	sh	gp,286(sp)

80000c5c <i_736>:
80000c5c:	00810f03          	lb	t5,8(sp)

80000c60 <i_737>:
80000c60:	e7812403          	lw	s0,-392(sp)

80000c64 <i_738>:
80000c64:	00825263          	ble	s0,tp,80000c68 <i_739>

80000c68 <i_739>:
80000c68:	c72fe437          	lui	s0,0xc72fe

80000c6c <i_740>:
80000c6c:	13012203          	lw	tp,304(sp)

80000c70 <i_741>:
80000c70:	22833993          	sltiu	s3,t1,552

80000c74 <i_742>:
80000c74:	e5511a23          	sh	s5,-428(sp)

80000c78 <i_743>:
80000c78:	15014403          	lbu	s0,336(sp)

80000c7c <i_744>:
80000c7c:	17e10d23          	sb	t5,378(sp)

80000c80 <i_745>:
80000c80:	19310823          	sb	s3,400(sp)

80000c84 <i_746>:
80000c84:	d35cab13          	slti	s6,s9,-715

80000c88 <i_747>:
80000c88:	0d412f03          	lw	t5,212(sp)

80000c8c <i_748>:
80000c8c:	01700313          	li	t1,23

80000c90 <i_749>:
80000c90:	006ad7b3          	srl	a5,s5,t1

80000c94 <i_750>:
80000c94:	02656063          	bltu	a0,t1,80000cb4 <i_758>

80000c98 <i_751>:
80000c98:	01465a63          	ble	s4,a2,80000cac <i_756>

80000c9c <i_752>:
80000c9c:	1cc12b83          	lw	s7,460(sp)

80000ca0 <i_753>:
80000ca0:	015ec663          	blt	t4,s5,80000cac <i_756>

80000ca4 <i_754>:
80000ca4:	b926ca93          	xori	s5,a3,-1134

80000ca8 <i_755>:
80000ca8:	003b5c93          	srli	s9,s6,0x3

80000cac <i_756>:
80000cac:	30e74817          	auipc	a6,0x30e74

80000cb0 <i_757>:
80000cb0:	75bcb313          	sltiu	t1,s9,1883

80000cb4 <i_758>:
80000cb4:	f8612823          	sw	t1,-112(sp)

80000cb8 <i_759>:
80000cb8:	a06cf893          	andi	a7,s9,-1530

80000cbc <i_760>:
80000cbc:	013f8593          	addi	a1,t6,19

80000cc0 <i_761>:
80000cc0:	00140a63          	beq	s0,ra,80000cd4 <i_766>

80000cc4 <i_762>:
80000cc4:	eed10583          	lb	a1,-275(sp)

80000cc8 <i_763>:
80000cc8:	e2415083          	lhu	ra,-476(sp)

80000ccc <i_764>:
80000ccc:	01000a13          	li	s4,16

80000cd0 <i_765>:
80000cd0:	414251b3          	sra	gp,tp,s4

80000cd4 <i_766>:
80000cd4:	e6214583          	lbu	a1,-414(sp)

80000cd8 <i_767>:
80000cd8:	0ff11823          	sh	t6,240(sp)

80000cdc <i_768>:
80000cdc:	fc33dc37          	lui	s8,0xfc33d

80000ce0 <i_769>:
80000ce0:	f5a14c03          	lbu	s8,-166(sp)

80000ce4 <i_770>:
80000ce4:	c6d0b193          	sltiu	gp,ra,-915

80000ce8 <i_771>:
80000ce8:	57623217          	auipc	tp,0x57623

80000cec <i_772>:
80000cec:	b9123e93          	sltiu	t4,tp,-1135

80000cf0 <i_773>:
80000cf0:	004907b3          	add	a5,s2,tp

80000cf4 <i_774>:
80000cf4:	00458c63          	beq	a1,tp,80000d0c <i_780>

80000cf8 <i_775>:
80000cf8:	e2812e83          	lw	t4,-472(sp)

80000cfc <i_776>:
80000cfc:	0dc15283          	lhu	t0,220(sp)

80000d00 <i_777>:
80000d00:	18412c23          	sw	tp,408(sp)

80000d04 <i_778>:
80000d04:	402dd413          	srai	s0,s11,0x2

80000d08 <i_779>:
80000d08:	e9712e23          	sw	s7,-356(sp)

80000d0c <i_780>:
80000d0c:	8701ce13          	xori	t3,gp,-1936

80000d10 <i_781>:
80000d10:	00374263          	blt	a4,gp,80000d14 <i_782>

80000d14 <i_782>:
80000d14:	e3810f23          	sb	s8,-450(sp)

80000d18 <i_783>:
80000d18:	00f2fe33          	and	t3,t0,a5

80000d1c <i_784>:
80000d1c:	00f4bd33          	sltu	s10,s1,a5

80000d20 <i_785>:
80000d20:	234e0213          	addi	tp,t3,564

80000d24 <i_786>:
80000d24:	00833793          	sltiu	a5,t1,8

80000d28 <i_787>:
80000d28:	15012283          	lw	t0,336(sp)

80000d2c <i_788>:
80000d2c:	83400e13          	li	t3,-1996

80000d30 <i_789>:
80000d30:	83600a13          	li	s4,-1994

80000d34 <i_790>:
80000d34:	fd510023          	sb	s5,-64(sp)

80000d38 <i_791>:
80000d38:	403cdb93          	srai	s7,s9,0x3

80000d3c <i_792>:
80000d3c:	17111623          	sh	a7,364(sp)

80000d40 <i_793>:
80000d40:	001e0e13          	addi	t3,t3,1
80000d44:	ff4e68e3          	bltu	t3,s4,80000d34 <i_790>

80000d48 <i_794>:
80000d48:	014f0663          	beq	t5,s4,80000d54 <i_797>

80000d4c <i_795>:
80000d4c:	402dd093          	srai	ra,s11,0x2

80000d50 <i_796>:
80000d50:	11610083          	lb	ra,278(sp)

80000d54 <i_797>:
80000d54:	01494663          	blt	s2,s4,80000d60 <i_800>

80000d58 <i_798>:
80000d58:	f2911723          	sh	s1,-210(sp)

80000d5c <i_799>:
80000d5c:	00d92933          	slt	s2,s2,a3

80000d60 <i_800>:
80000d60:	08a11523          	sh	a0,138(sp)

80000d64 <i_801>:
80000d64:	51833613          	sltiu	a2,t1,1304

80000d68 <i_802>:
80000d68:	7dfd8413          	addi	s0,s11,2015

80000d6c <i_803>:
80000d6c:	e8a15503          	lhu	a0,-374(sp)

80000d70 <i_804>:
80000d70:	1d910ba3          	sb	s9,471(sp)

80000d74 <i_805>:
80000d74:	00e38533          	add	a0,t2,a4

80000d78 <i_806>:
80000d78:	f3111423          	sh	a7,-216(sp)

80000d7c <i_807>:
80000d7c:	01600293          	li	t0,22

80000d80 <i_808>:
80000d80:	005ed0b3          	srl	ra,t4,t0

80000d84 <i_809>:
80000d84:	e4f12e23          	sw	a5,-420(sp)

80000d88 <i_810>:
80000d88:	49e57293          	andi	t0,a0,1182

80000d8c <i_811>:
80000d8c:	41da8a33          	sub	s4,s5,t4

80000d90 <i_812>:
80000d90:	ea230ab7          	lui	s5,0xea230

80000d94 <i_813>:
80000d94:	014a61b3          	or	gp,s4,s4

80000d98 <i_814>:
80000d98:	11f12c23          	sw	t6,280(sp)

80000d9c <i_815>:
80000d9c:	0040d293          	srli	t0,ra,0x4

80000da0 <i_816>:
80000da0:	1a812e83          	lw	t4,424(sp)

80000da4 <i_817>:
80000da4:	4011d993          	srai	s3,gp,0x1

80000da8 <i_818>:
80000da8:	002cdd93          	srli	s11,s9,0x2

80000dac <i_819>:
80000dac:	00412983          	lw	s3,4(sp)

80000db0 <i_820>:
80000db0:	01259c63          	bne	a1,s2,80000dc8 <i_826>

80000db4 <i_821>:
80000db4:	03a15183          	lhu	gp,58(sp)

80000db8 <i_822>:
80000db8:	0dc12e83          	lw	t4,220(sp)

80000dbc <i_823>:
80000dbc:	001e9993          	slli	s3,t4,0x1

80000dc0 <i_824>:
80000dc0:	01a30c63          	beq	t1,s10,80000dd8 <i_830>

80000dc4 <i_825>:
80000dc4:	f6e11803          	lh	a6,-146(sp)

80000dc8 <i_826>:
80000dc8:	0057f833          	and	a6,a5,t0

80000dcc <i_827>:
80000dcc:	08912223          	sw	s1,132(sp)

80000dd0 <i_828>:
80000dd0:	e5b10183          	lb	gp,-421(sp)

80000dd4 <i_829>:
80000dd4:	01512e33          	slt	t3,sp,s5

80000dd8 <i_830>:
80000dd8:	00000013          	nop

80000ddc <i_831>:
80000ddc:	07212823          	sw	s2,112(sp)

80000de0 <i_832>:
80000de0:	8c900613          	li	a2,-1847

80000de4 <i_833>:
80000de4:	8cc00e13          	li	t3,-1844

80000de8 <i_834>:
80000de8:	7241c493          	xori	s1,gp,1828

80000dec <i_835>:
80000dec:	05012803          	lw	a6,80(sp)

80000df0 <i_836>:
80000df0:	89700a93          	li	s5,-1897

80000df4 <i_837>:
80000df4:	89900913          	li	s2,-1895

80000df8 <i_838>:
80000df8:	001a8a93          	addi	s5,s5,1 # ea230001 <_end+0x6a21fbed>
80000dfc:	ff595ee3          	ble	s5,s2,80000df8 <i_838>

80000e00 <i_839>:
80000e00:	1b815803          	lhu	a6,440(sp)

80000e04 <i_840>:
80000e04:	00d20eb3          	add	t4,tp,a3

80000e08 <i_841>:
80000e08:	00160613          	addi	a2,a2,1
80000e0c:	fdc64ee3          	blt	a2,t3,80000de8 <i_834>

80000e10 <i_842>:
80000e10:	17b10b23          	sb	s11,374(sp)

80000e14 <i_843>:
80000e14:	f4015603          	lhu	a2,-192(sp)

80000e18 <i_844>:
80000e18:	1ae10e23          	sb	a4,444(sp)

80000e1c <i_845>:
80000e1c:	a7884513          	xori	a0,a6,-1416

80000e20 <i_846>:
80000e20:	9b05fd93          	andi	s11,a1,-1616

80000e24 <i_847>:
80000e24:	00ce2633          	slt	a2,t3,a2

80000e28 <i_848>:
80000e28:	01f9f5b3          	and	a1,s3,t6

80000e2c <i_849>:
80000e2c:	f19100a3          	sb	s9,-255(sp)

80000e30 <i_850>:
80000e30:	daa73513          	sltiu	a0,a4,-598

80000e34 <i_851>:
80000e34:	12a12023          	sw	a0,288(sp)

80000e38 <i_852>:
80000e38:	18a11523          	sh	a0,394(sp)

80000e3c <i_853>:
80000e3c:	8cc00513          	li	a0,-1844

80000e40 <i_854>:
80000e40:	8ce00293          	li	t0,-1842

80000e44 <i_855>:
80000e44:	0df10903          	lb	s2,223(sp)

80000e48 <i_856>:
80000e48:	01aaf6b3          	and	a3,s5,s10

80000e4c <i_857>:
80000e4c:	45c86593          	ori	a1,a6,1116

80000e50 <i_858>:
80000e50:	c5170d13          	addi	s10,a4,-943

80000e54 <i_859>:
80000e54:	edb10f23          	sb	s11,-290(sp)

80000e58 <i_860>:
80000e58:	f6a11803          	lh	a6,-150(sp)

80000e5c <i_861>:
80000e5c:	00b00d13          	li	s10,11

80000e60 <i_862>:
80000e60:	01a9dab3          	srl	s5,s3,s10

80000e64 <i_863>:
80000e64:	00150513          	addi	a0,a0,1
80000e68:	fc556ee3          	bltu	a0,t0,80000e44 <i_855>

80000e6c <i_864>:
80000e6c:	01b4ec63          	bltu	s1,s11,80000e84 <i_870>

80000e70 <i_865>:
80000e70:	019ad663          	ble	s9,s5,80000e7c <i_868>

80000e74 <i_866>:
80000e74:	11512423          	sw	s5,264(sp)

80000e78 <i_867>:
80000e78:	01360ab3          	add	s5,a2,s3

80000e7c <i_868>:
80000e7c:	fc815303          	lhu	t1,-56(sp)

80000e80 <i_869>:
80000e80:	008d6c63          	bltu	s10,s0,80000e98 <i_875>

80000e84 <i_870>:
80000e84:	19110923          	sb	a7,402(sp)

80000e88 <i_871>:
80000e88:	07211e23          	sh	s2,124(sp)

80000e8c <i_872>:
80000e8c:	00251d13          	slli	s10,a0,0x2

80000e90 <i_873>:
80000e90:	07815403          	lhu	s0,120(sp)

80000e94 <i_874>:
80000e94:	ebc11223          	sh	t3,-348(sp)

80000e98 <i_875>:
80000e98:	00b70533          	add	a0,a4,a1

80000e9c <i_876>:
80000e9c:	0d810d23          	sb	s8,218(sp)

80000ea0 <i_877>:
80000ea0:	19512c23          	sw	s5,408(sp)

80000ea4 <i_878>:
80000ea4:	01c99c63          	bne	s3,t3,80000ebc <i_884>

80000ea8 <i_879>:
80000ea8:	01400f13          	li	t5,20

80000eac <i_880>:
80000eac:	41e6db33          	sra	s6,a3,t5

80000eb0 <i_881>:
80000eb0:	f6012c03          	lw	s8,-160(sp)

80000eb4 <i_882>:
80000eb4:	f1514683          	lbu	a3,-235(sp)

80000eb8 <i_883>:
80000eb8:	01f9fe63          	bleu	t6,s3,80000ed4 <i_890>

80000ebc <i_884>:
80000ebc:	16210483          	lb	s1,354(sp)

80000ec0 <i_885>:
80000ec0:	adf70e97          	auipc	t4,0xadf70

80000ec4 <i_886>:
80000ec4:	039ec463          	blt	t4,s9,80000eec <i_896>

80000ec8 <i_887>:
80000ec8:	00d76263          	bltu	a4,a3,80000ecc <i_888>

80000ecc <i_888>:
80000ecc:	19812e83          	lw	t4,408(sp)

80000ed0 <i_889>:
80000ed0:	f1c12183          	lw	gp,-228(sp)

80000ed4 <i_890>:
80000ed4:	e5884893          	xori	a7,a6,-424

80000ed8 <i_891>:
80000ed8:	06e11883          	lh	a7,110(sp)

80000edc <i_892>:
80000edc:	f7211123          	sh	s2,-158(sp)

80000ee0 <i_893>:
80000ee0:	7d56ec93          	ori	s9,a3,2005

80000ee4 <i_894>:
80000ee4:	0ae14c03          	lbu	s8,174(sp)

80000ee8 <i_895>:
80000ee8:	c7543913          	sltiu	s2,s0,-907

80000eec <i_896>:
80000eec:	00391793          	slli	a5,s2,0x3

80000ef0 <i_897>:
80000ef0:	0303f063          	bleu	a6,t2,80000f10 <i_905>

80000ef4 <i_898>:
80000ef4:	07411783          	lh	a5,116(sp)

80000ef8 <i_899>:
80000ef8:	9b883f13          	sltiu	t5,a6,-1608

80000efc <i_900>:
80000efc:	8e20bd13          	sltiu	s10,ra,-1822

80000f00 <i_901>:
80000f00:	02214503          	lbu	a0,34(sp)

80000f04 <i_902>:
80000f04:	03b47463          	bleu	s11,s0,80000f2c <i_912>

80000f08 <i_903>:
80000f08:	16b11323          	sh	a1,358(sp)

80000f0c <i_904>:
80000f0c:	be742f13          	slti	t5,s0,-1049

80000f10 <i_905>:
80000f10:	01900413          	li	s0,25

80000f14 <i_906>:
80000f14:	008a9433          	sll	s0,s5,s0

80000f18 <i_907>:
80000f18:	fec14403          	lbu	s0,-20(sp)

80000f1c <i_908>:
80000f1c:	07c12c03          	lw	s8,124(sp)

80000f20 <i_909>:
80000f20:	01411c03          	lh	s8,20(sp)

80000f24 <i_910>:
80000f24:	00846663          	bltu	s0,s0,80000f30 <i_913>

80000f28 <i_911>:
80000f28:	eed14a03          	lbu	s4,-275(sp)

80000f2c <i_912>:
80000f2c:	00451293          	slli	t0,a0,0x4

80000f30 <i_913>:
80000f30:	027a9463          	bne	s5,t2,80000f58 <i_923>

80000f34 <i_914>:
80000f34:	e5914503          	lbu	a0,-423(sp)

80000f38 <i_915>:
80000f38:	11e11423          	sh	t5,264(sp)

80000f3c <i_916>:
80000f3c:	1e211283          	lh	t0,482(sp)

80000f40 <i_917>:
80000f40:	0072cc63          	blt	t0,t2,80000f58 <i_923>

80000f44 <i_918>:
80000f44:	1d911f23          	sh	s9,478(sp)

80000f48 <i_919>:
80000f48:	06811683          	lh	a3,104(sp)

80000f4c <i_920>:
80000f4c:	f2a73c97          	auipc	s9,0xf2a73

80000f50 <i_921>:
80000f50:	e9d12c23          	sw	t4,-360(sp)

80000f54 <i_922>:
80000f54:	00b3dc63          	ble	a1,t2,80000f6c <i_928>

80000f58 <i_923>:
80000f58:	02d7f463          	bleu	a3,a5,80000f80 <i_933>

80000f5c <i_924>:
80000f5c:	019744b3          	xor	s1,a4,s9

80000f60 <i_925>:
80000f60:	014d5263          	ble	s4,s10,80000f64 <i_926>

80000f64 <i_926>:
80000f64:	13c10ea3          	sb	t3,317(sp)

80000f68 <i_927>:
80000f68:	d775c093          	xori	ra,a1,-649

80000f6c <i_928>:
80000f6c:	004ad213          	srli	tp,s5,0x4

80000f70 <i_929>:
80000f70:	17e12623          	sw	t5,364(sp)

80000f74 <i_930>:
80000f74:	f0110903          	lb	s2,-255(sp)

80000f78 <i_931>:
80000f78:	84d3a513          	slti	a0,t2,-1971

80000f7c <i_932>:
80000f7c:	1d912a23          	sw	s9,468(sp)

80000f80 <i_933>:
80000f80:	01ae0cb3          	add	s9,t3,s10

80000f84 <i_934>:
80000f84:	f8610b83          	lb	s7,-122(sp)

80000f88 <i_935>:
80000f88:	13a15403          	lhu	s0,314(sp)

80000f8c <i_936>:
80000f8c:	00400913          	li	s2,4

80000f90 <i_937>:
80000f90:	012edbb3          	srl	s7,t4,s2

80000f94 <i_938>:
80000f94:	e5e11903          	lh	s2,-418(sp)

80000f98 <i_939>:
80000f98:	04812283          	lw	t0,72(sp)

80000f9c <i_940>:
80000f9c:	1ac109a3          	sb	a2,435(sp)

80000fa0 <i_941>:
80000fa0:	04e11783          	lh	a5,78(sp)

80000fa4 <i_942>:
80000fa4:	0dd10283          	lb	t0,221(sp)

80000fa8 <i_943>:
80000fa8:	57e4fb17          	auipc	s6,0x57e4f

80000fac <i_944>:
80000fac:	c0ea7b93          	andi	s7,s4,-1010

80000fb0 <i_945>:
80000fb0:	fe812e83          	lw	t4,-24(sp)

80000fb4 <i_946>:
80000fb4:	1d710023          	sb	s7,448(sp)

80000fb8 <i_947>:
80000fb8:	01adc5b3          	xor	a1,s11,s10

80000fbc <i_948>:
80000fbc:	030a7263          	bleu	a6,s4,80000fe0 <i_957>

80000fc0 <i_949>:
80000fc0:	01996e63          	bltu	s2,s9,80000fdc <i_956>

80000fc4 <i_950>:
80000fc4:	00eb8333          	add	t1,s7,a4

80000fc8 <i_951>:
80000fc8:	017be6b3          	or	a3,s7,s7

80000fcc <i_952>:
80000fcc:	008d8c63          	beq	s11,s0,80000fe4 <i_958>

80000fd0 <i_953>:
80000fd0:	e1c10183          	lb	gp,-484(sp)

80000fd4 <i_954>:
80000fd4:	40375d93          	srai	s11,a4,0x3

80000fd8 <i_955>:
80000fd8:	410f06b3          	sub	a3,t5,a6

80000fdc <i_956>:
80000fdc:	fdc10983          	lb	s3,-36(sp)

80000fe0 <i_957>:
80000fe0:	0c912623          	sw	s1,204(sp)

80000fe4 <i_958>:
80000fe4:	0a215183          	lhu	gp,162(sp)

80000fe8 <i_959>:
80000fe8:	02010683          	lb	a3,32(sp)

80000fec <i_960>:
80000fec:	f0811223          	sh	s0,-252(sp)

80000ff0 <i_961>:
80000ff0:	f6d14783          	lbu	a5,-147(sp)

80000ff4 <i_962>:
80000ff4:	06112023          	sw	ra,96(sp)

80000ff8 <i_963>:
80000ff8:	06c14183          	lbu	gp,108(sp)

80000ffc <i_964>:
80000ffc:	004f1b93          	slli	s7,t5,0x4

80001000 <i_965>:
80001000:	1a012183          	lw	gp,416(sp)

80001004 <i_966>:
80001004:	010bf863          	bleu	a6,s7,80001014 <i_970>

80001008 <i_967>:
80001008:	00300593          	li	a1,3

8000100c <i_968>:
8000100c:	00b45cb3          	srl	s9,s0,a1

80001010 <i_969>:
80001010:	01828433          	add	s0,t0,s8

80001014 <i_970>:
80001014:	0d811683          	lh	a3,216(sp)

80001018 <i_971>:
80001018:	0eb11723          	sh	a1,238(sp)

8000101c <i_972>:
8000101c:	06210b23          	sb	sp,118(sp)

80001020 <i_973>:
80001020:	004969b3          	or	s3,s2,tp

80001024 <i_974>:
80001024:	78b00e13          	li	t3,1931

80001028 <i_975>:
80001028:	78f00813          	li	a6,1935

8000102c <i_976>:
8000102c:	ef311123          	sh	s3,-286(sp)

80001030 <i_977>:
80001030:	00271993          	slli	s3,a4,0x2

80001034 <i_978>:
80001034:	00000013          	nop

80001038 <i_979>:
80001038:	001e0e13          	addi	t3,t3,1
8000103c:	ff0e48e3          	blt	t3,a6,8000102c <i_976>

80001040 <i_980>:
80001040:	08a15803          	lhu	a6,138(sp)

80001044 <i_981>:
80001044:	17f10aa3          	sb	t6,373(sp)

80001048 <i_982>:
80001048:	e8215203          	lhu	tp,-382(sp)

8000104c <i_983>:
8000104c:	011b4a63          	blt	s6,a7,80001060 <i_988>

80001050 <i_984>:
80001050:	ccae6993          	ori	s3,t3,-822

80001054 <i_985>:
80001054:	00e261b3          	or	gp,tp,a4

80001058 <i_986>:
80001058:	fec12203          	lw	tp,-20(sp)

8000105c <i_987>:
8000105c:	1ac12f03          	lw	t5,428(sp)

80001060 <i_988>:
80001060:	e8414c03          	lbu	s8,-380(sp)

80001064 <i_989>:
80001064:	07810823          	sb	s8,112(sp)

80001068 <i_990>:
80001068:	75d00713          	li	a4,1885

8000106c <i_991>:
8000106c:	76100a13          	li	s4,1889

80001070 <i_992>:
80001070:	e2c12983          	lw	s3,-468(sp)

80001074 <i_993>:
80001074:	00000013          	nop

80001078 <i_994>:
80001078:	0278e263          	bltu	a7,t2,8000109c <i_1002>

8000107c <i_995>:
8000107c:	1bd14f03          	lbu	t5,445(sp)

80001080 <i_996>:
80001080:	00170713          	addi	a4,a4,1
80001084:	feea16e3          	bne	s4,a4,80001070 <i_992>

80001088 <i_997>:
80001088:	e6810983          	lb	s3,-408(sp)

8000108c <i_998>:
8000108c:	18b11623          	sh	a1,396(sp)

80001090 <i_999>:
80001090:	0042c433          	xor	s0,t0,tp

80001094 <i_1000>:
80001094:	00000013          	nop

80001098 <i_1001>:
80001098:	00000013          	nop

8000109c <i_1002>:
8000109c:	00000013          	nop

800010a0 <i_1003>:
800010a0:	00000013          	nop

800010a4 <i_1004>:
800010a4:	00000013          	nop

800010a8 <i_1005>:
800010a8:	00000013          	nop

800010ac <i_1006>:
800010ac:	00000013          	nop

800010b0 <i_1007>:
800010b0:	00000013          	nop

800010b4 <i_1008>:
800010b4:	00000013          	nop

800010b8 <i_1009>:
800010b8:	00000013          	nop
800010bc:	0040006f          	j	800010c0 <tohost_exit>

800010c0 <tohost_exit>:
800010c0:	00100113          	li	sp,1
800010c4:	01f11113          	slli	sp,sp,0x1f
800010c8:	000101b7          	lui	gp,0x10
800010cc:	00310133          	add	sp,sp,gp
800010d0:	00100713          	li	a4,1
800010d4:	40e12023          	sw	a4,1024(sp)

800010d8 <loop>:
800010d8:	0000006f          	j	800010d8 <loop>
	...

Disassembly of section .data:

80010000 <data>:
80010000:	861e                	mv	a2,t2
80010002:	f8a9                	bnez	s1,8000ff54 <loop+0xee7c>
80010004:	290c99d7          	0x290c99d7
80010008:	b2a8                	fsd	fa0,96(a3)
8001000a:	6cce                	flw	fs9,208(sp)
8001000c:	944b9bb7          	lui	s7,0x944b9
80010010:	225e                	fld	ft4,464(sp)
80010012:	2491                	jal	80010256 <data+0x256>
80010014:	07b4c0f3          	0x7b4c0f3
80010018:	44ce                	lw	s1,208(sp)
8001001a:	6e7e                	flw	ft8,220(sp)
8001001c:	e91a                	fsw	ft6,144(sp)
8001001e:	0a3c                	addi	a5,sp,280
80010020:	f4c5                	bnez	s1,8000ffc8 <loop+0xeef0>
80010022:	686156b7          	lui	a3,0x68615
80010026:	b912                	fsd	ft4,176(sp)
80010028:	97b51323          	sh	s11,-1690(a0)
8001002c:	cb9e                	sw	t2,212(sp)
8001002e:	718d                	lui	gp,0xfffe3
80010030:	cb15                	beqz	a4,80010064 <data+0x64>
80010032:	e691                	bnez	a3,8001003e <data+0x3e>
80010034:	736a                	flw	ft6,184(sp)
80010036:	c4a6                	sw	s1,72(sp)
80010038:	b194ccbb          	0xb194ccbb
8001003c:	cfd4a4f3          	csrrs	s1,0xcfd,s1
80010040:	3482                	fld	fs1,32(sp)
80010042:	5270                	lw	a2,100(a2)
80010044:	0bdf 2c3f 5edb      	0x5edb2c3f0bdf
8001004a:	de60                	sw	s0,124(a2)
8001004c:	5e15                	li	t3,-27
8001004e:	3734                	fld	fa3,104(a4)
80010050:	a0e9                	j	8001011a <data+0x11a>
80010052:	cda3653b          	0xcda3653b
80010056:	7af1                	lui	s5,0xffffc
80010058:	6646                	flw	fa2,80(sp)
8001005a:	364d                	jal	8000fbfc <loop+0xeb24>
8001005c:	7534                	flw	fa3,104(a0)
8001005e:	0ea8                	addi	a0,sp,856
80010060:	44deb213          	sltiu	tp,t4,1101
80010064:	b9d8                	fsd	fa4,176(a1)
80010066:	e149                	bnez	a0,800100e8 <data+0xe8>
80010068:	2dc5                	jal	80010758 <_end+0x344>
8001006a:	7726                	flw	fa4,104(sp)
8001006c:	25a9                	jal	800106b6 <_end+0x2a2>
8001006e:	7666                	flw	fa2,120(sp)
80010070:	ad82                	fsd	ft0,216(sp)
80010072:	1f69c333          	0x1f69c333
80010076:	8a5e                	mv	s4,s7
80010078:	dc2e                	sw	a1,56(sp)
8001007a:	e22e                	fsw	fa1,4(sp)
8001007c:	d490                	sw	a2,40(s1)
8001007e:	6824                	flw	fs1,80(s0)
80010080:	eea7938f          	0xeea7938f
80010084:	49f1                	li	s3,28
80010086:	d6a4                	sw	s1,104(a3)
80010088:	60e5                	lui	ra,0x19
8001008a:	be5f 42e5 7d3b      	0x7d3b42e5be5f
80010090:	ae0a                	fsd	ft2,280(sp)
80010092:	541c                	lw	a5,40(s0)
80010094:	aeb0                	fsd	fa2,88(a3)
80010096:	e1b2                	fsw	fa2,192(sp)
80010098:	3f10                	fld	fa2,56(a4)
8001009a:	8972                	mv	s2,t3
8001009c:	2cbe                	fld	fs9,456(sp)
8001009e:	c7a4                	sw	s1,72(a5)
800100a0:	d4aa                	sw	a0,104(sp)
800100a2:	bcf1                	j	8000fb7e <loop+0xeaa6>
800100a4:	737d                	lui	t1,0xfffff
800100a6:	cbbc                	sw	a5,80(a5)
800100a8:	8c92c747          	0x8c92c747
800100ac:	50b5                	li	ra,-19
800100ae:	6286                	flw	ft5,64(sp)
800100b0:	c975                	beqz	a0,800101a4 <data+0x1a4>
800100b2:	a86d                	j	8001016c <data+0x16c>
800100b4:	39e6                	fld	fs3,120(sp)
800100b6:	7d450f0f          	0x7d450f0f
800100ba:	c294                	sw	a3,0(a3)
800100bc:	7989                	lui	s3,0xfffe2
800100be:	4784                	lw	s1,8(a5)
800100c0:	9956975b          	0x9956975b
800100c4:	0c5c                	addi	a5,sp,532
800100c6:	cb810c9b          	0xcb810c9b
800100ca:	4b75                	li	s6,29
800100cc:	5692                	lw	a3,36(sp)
800100ce:	9f1c893b          	0x9f1c893b
800100d2:	1f52                	slli	t5,t5,0x34
800100d4:	9f21                	0x9f21
800100d6:	0479                	addi	s0,s0,30
800100d8:	834514e3          	bne	a0,s4,8000f900 <loop+0xe828>
800100dc:	bdb9                	j	8000ff3a <loop+0xee62>
800100de:	da58                	sw	a4,52(a2)
800100e0:	b242                	fsd	fa6,288(sp)
800100e2:	184fbfc7          	fmsub.s	ft11,ft11,ft4,ft3,rup
800100e6:	ec82                	fsw	ft0,88(sp)
800100e8:	c5d9e283          	0xc5d9e283
800100ec:	4eb2                	lw	t4,12(sp)
800100ee:	5fba                	lw	t6,172(sp)
800100f0:	7fa0                	flw	fs0,120(a5)
800100f2:	1b6e3d8b          	0x1b6e3d8b
800100f6:	3132e743          	fmadd.s	fa4,ft5,fs3,ft6,unknown
800100fa:	9d1e                	add	s10,s10,t2
800100fc:	f039                	bnez	s0,80010042 <data+0x42>
800100fe:	a2d1                	j	800102c2 <data+0x2c2>
80010100:	7854                	flw	fa3,52(s0)
80010102:	7770                	flw	fa2,108(a4)
80010104:	b2b23587          	fld	fa1,-1237(tp) # d7623813 <_end+0x576133ff>
80010108:	306e3567          	0x306e3567
8001010c:	e43d                	bnez	s0,8001017a <data+0x17a>
8001010e:	6826                	flw	fa6,72(sp)
80010110:	80f8                	0x80f8
80010112:	2ede                	fld	ft9,464(sp)
80010114:	6bc1                	lui	s7,0x10
80010116:	cca31d63          	bne	t1,a0,8000f5f0 <loop+0xe518>
8001011a:	7ae7cf2f          	0x7ae7cf2f
8001011e:	9256                	add	tp,tp,s5
80010120:	bbbe                	fsd	fa5,496(sp)
80010122:	8f2e                	mv	t5,a1
80010124:	26b3a197          	auipc	gp,0x26b3a
80010128:	0a75                	addi	s4,s4,29
8001012a:	2960                	fld	fs0,208(a0)
8001012c:	61b9                	lui	gp,0xe
8001012e:	5e54                	lw	a3,60(a2)
80010130:	e76a                	fsw	fs10,140(sp)
80010132:	cfcf08c3          	fmadd.q	fa7,ft10,ft8,fs9,rne
80010136:	4cb5                	li	s9,13
80010138:	6aed                	lui	s5,0x1b
8001013a:	04226823          	0x4226823
8001013e:	8494                	0x8494
80010140:	b4cd                	j	8000fc22 <loop+0xeb4a>
80010142:	6c2e                	flw	fs8,200(sp)
80010144:	a849                	j	800101d6 <data+0x1d6>
80010146:	82ac                	0x82ac
80010148:	bc7a                	fsd	ft10,56(sp)
8001014a:	03a6                	slli	t2,t2,0x9
8001014c:	4c1c                	lw	a5,24(s0)
8001014e:	7a8e                	flw	fs5,224(sp)
80010150:	1596                	slli	a1,a1,0x25
80010152:	4dfd3237          	lui	tp,0x4dfd3
80010156:	d75572f7          	0xd75572f7
8001015a:	64dba693          	slti	a3,s7,1613
8001015e:	1ad5                	addi	s5,s5,-11
80010160:	7801                	lui	a6,0xfffe0
80010162:	d9da986f          	jal	a6,7ffb9efe <main-0x46102>
80010166:	0924                	addi	s1,sp,152
80010168:	506c                	lw	a1,100(s0)
8001016a:	8e3aaa6b          	0x8e3aaa6b
8001016e:	2ab4                	fld	fa3,80(a3)
80010170:	b7a9                	j	800100ba <data+0xba>
80010172:	64cc                	flw	fa1,12(s1)
80010174:	5998                	lw	a4,48(a1)
80010176:	827a                	mv	tp,t5
80010178:	266915bf 3503f30d 	0x3503f30d266915bf
80010180:	03c2                	slli	t2,t2,0x10
80010182:	04b5                	addi	s1,s1,13
80010184:	9c01                	0x9c01
80010186:	b26c                	fsd	fa1,224(a2)
80010188:	078471cb          	fnmsub.q	ft3,fs0,fs8,ft0
8001018c:	4f7e                	lw	t5,220(sp)
8001018e:	8822                	mv	a6,s0
80010190:	677e                	flw	fa4,220(sp)
80010192:	f1d8                	fsw	fa4,36(a1)
80010194:	9869                	andi	s0,s0,-6
80010196:	1d3a                	slli	s10,s10,0x2e
80010198:	52be                	lw	t0,236(sp)
8001019a:	542c80e7          	jalr	1346(s9) # 72a7448e <main-0xd58bb72>
8001019e:	2c92                	fld	fs9,256(sp)
800101a0:	e9a8                	fsw	fa0,80(a1)
800101a2:	ded2                	sw	s4,124(sp)
800101a4:	e324                	fsw	fs1,64(a4)
800101a6:	9ec6                	add	t4,t4,a7
800101a8:	f1a5                	bnez	a1,80010108 <data+0x108>
800101aa:	a00cc703          	lbu	a4,-1536(s9)
800101ae:	16ff                	0x16ff
800101b0:	bf351393          	0xbf351393
800101b4:	ec26                	fsw	fs1,24(sp)
800101b6:	45ba                	lw	a1,140(sp)
800101b8:	ada8                	fsd	fa0,88(a1)
800101ba:	a7ee78bb          	0xa7ee78bb
800101be:	5aac                	lw	a1,112(a3)
800101c0:	f642                	fsw	fa6,44(sp)
800101c2:	4a24                	lw	s1,80(a2)
800101c4:	d10f77fb          	0xd10f77fb
800101c8:	24a0                	fld	fs0,72(s1)
800101ca:	b655                	j	8000fd6e <loop+0xec96>
800101cc:	d519                	beqz	a0,800100da <data+0xda>
800101ce:	6844ffaf          	0x6844ffaf
800101d2:	19df baac 5049      	0x5049baac19df
800101d8:	b440                	fsd	fs0,168(s0)
800101da:	fd69                	bnez	a0,800101b4 <data+0x1b4>
800101dc:	95a9                	srai	a1,a1,0x2a
800101de:	e872                	fsw	ft8,16(sp)
800101e0:	ba00                	fsd	fs0,48(a2)
800101e2:	522d                	li	tp,-21
800101e4:	42fc                	lw	a5,68(a3)
800101e6:	ba3d                	j	8000fb24 <loop+0xea4c>
800101e8:	50d190bb          	0x50d190bb
800101ec:	08da                	slli	a7,a7,0x16
800101ee:	355aa993          	slti	s3,s5,853
800101f2:	2c8a                	fld	fs9,128(sp)
800101f4:	a4b7beaf          	0xa4b7beaf
800101f8:	fe46                	fsw	fa7,60(sp)
800101fa:	9b78                	0x9b78
800101fc:	4705                	li	a4,1
800101fe:	f067583b          	0xf067583b
80010202:	419c                	lw	a5,0(a1)
80010204:	b9f42d2b          	0xb9f42d2b
80010208:	82ca                	mv	t0,s2
8001020a:	5b0c                	lw	a1,48(a4)
8001020c:	a1b4                	fsd	fa3,64(a1)
8001020e:	4005                	0x4005
80010210:	2ca2                	fld	fs9,8(sp)
80010212:	121e                	slli	tp,tp,0x27
80010214:	2ab0                	fld	fa2,80(a3)
80010216:	4342                	lw	t1,16(sp)
80010218:	6bcb4563          	blt	s6,t3,800108c2 <_end+0x4ae>
8001021c:	ed5f 2ce3 6c7d      	0x6c7d2ce3ed5f
80010222:	b08fa417          	auipc	s0,0xb08fa
80010226:	7085                	lui	ra,0xfffe1
80010228:	7bfe                	flw	fs7,252(sp)
8001022a:	6eff                	0x6eff
8001022c:	70e9                	lui	ra,0xffffa
8001022e:	a5055313          	0xa5055313
80010232:	cd50                	sw	a2,28(a0)
80010234:	4fd2                	lw	t6,20(sp)
80010236:	6c6a                	flw	fs8,152(sp)
80010238:	35a5                	jal	800100a0 <data+0xa0>
8001023a:	0b88                	addi	a0,sp,464
8001023c:	0728                	addi	a0,sp,904
8001023e:	09fc                	addi	a5,sp,220
80010240:	668d                	lui	a3,0x3
80010242:	3888                	fld	fa0,48(s1)
80010244:	274a                	fld	fa4,144(sp)
80010246:	0dd1                	addi	s11,s11,20
80010248:	8b1d                	andi	a4,a4,7
8001024a:	2046                	fld	ft0,80(sp)
8001024c:	453a                	lw	a0,140(sp)
8001024e:	5e59                	li	t3,-10
80010250:	09ee                	slli	s3,s3,0x1b
80010252:	20f1                	jal	8001031e <data+0x31e>
80010254:	a4e9                	j	8001051e <_end+0x10a>
80010256:	ef42                	fsw	fa6,156(sp)
80010258:	37307eef          	jal	t4,80017dca <_end+0x79b6>
8001025c:	79ee992f          	0x79ee992f
80010260:	079c                	addi	a5,sp,960
80010262:	75a1                	lui	a1,0xfffe8
80010264:	6bd6                	flw	fs7,84(sp)
80010266:	1c29                	addi	s8,s8,-22
80010268:	d9d6                	sw	s5,240(sp)
8001026a:	4eee                	lw	t4,216(sp)
8001026c:	d4aa                	sw	a0,104(sp)
8001026e:	b72e                	fsd	fa1,424(sp)
80010270:	de40                	sw	s0,60(a2)
80010272:	80a0                	0x80a0
80010274:	656e                	flw	fa0,216(sp)
80010276:	ec02                	fsw	ft0,24(sp)
80010278:	e354                	fsw	fa3,4(a4)
8001027a:	ac1c                	fsd	fa5,24(s0)
8001027c:	9d32                	add	s10,s10,a2
8001027e:	5771                	li	a4,-4
80010280:	22b04e6f          	jal	t3,80014caa <_end+0x4896>
80010284:	4eb8                	lw	a4,88(a3)
80010286:	20e5                	jal	8001036e <data+0x36e>
80010288:	1f2c                	addi	a1,sp,952
8001028a:	1f45                	addi	t5,t5,-15
8001028c:	f0d6                	fsw	fs5,96(sp)
8001028e:	73b6ca8f          	0x73b6ca8f
80010292:	7a29                	lui	s4,0xfffea
80010294:	22bafb03          	0x22bafb03
80010298:	b6c56d5b          	0xb6c56d5b
8001029c:	3fec                	fld	fa1,248(a5)
8001029e:	df269f07          	0xdf269f07
800102a2:	248d                	jal	80010504 <_end+0xf0>
800102a4:	f42e                	fsw	fa1,40(sp)
800102a6:	044e                	slli	s0,s0,0x13
800102a8:	1c59                	addi	s8,s8,-10
800102aa:	f694                	fsw	fa3,40(a3)
800102ac:	100e                	0x100e
800102ae:	7130                	flw	fa2,96(a0)
800102b0:	e390                	fsw	fa2,0(a5)
800102b2:	5884                	lw	s1,48(s1)
800102b4:	b699                	j	8000fdfa <loop+0xed22>
800102b6:	22f497cb          	fnmsub.d	fa5,fs1,fa5,ft4,rtz
800102ba:	875c                	0x875c
800102bc:	87e7efaf          	0x87e7efaf
800102c0:	7065                	0x7065
800102c2:	96ee                	add	a3,a3,s11
800102c4:	67e8                	flw	fa0,76(a5)
800102c6:	e9de                	fsw	fs7,208(sp)
800102c8:	6670                	flw	fa2,76(a2)
800102ca:	887f                	0x887f
800102cc:	28cc                	fld	fa1,144(s1)
800102ce:	419a387b          	0x419a387b
800102d2:	74bd                	lui	s1,0xfffef
800102d4:	3e5a                	fld	ft8,432(sp)
800102d6:	7c02cfa7          	fsq	ft0,2015(t0)
800102da:	efe1                	bnez	a5,800103b2 <data+0x3b2>
800102dc:	5d19                	li	s10,-26
800102de:	f308                	fsw	fa0,32(a4)
800102e0:	e7b2                	fsw	fa2,204(sp)
800102e2:	471d                	li	a4,7
800102e4:	7471                	lui	s0,0xffffc
800102e6:	cc96                	sw	t0,88(sp)
800102e8:	5bf2                	lw	s7,60(sp)
800102ea:	90dc                	0x90dc
800102ec:	fd06d863          	ble	a6,a3,8000fabc <loop+0xe9e4>
800102f0:	25c4                	fld	fs1,136(a1)
800102f2:	4094                	lw	a3,0(s1)
800102f4:	b424                	fsd	fs1,104(s0)
800102f6:	35f8                	fld	fa4,232(a1)
800102f8:	4fd9                	li	t6,22
800102fa:	021c                	addi	a5,sp,256
800102fc:	0201                	addi	tp,tp,0
800102fe:	a980                	fsd	fs0,16(a1)
80010300:	fcf2                	fsw	ft8,120(sp)
80010302:	aa24                	fsd	fs1,80(a2)
80010304:	cae9                	beqz	a3,800103d6 <data+0x3d6>
80010306:	22a8                	fld	fa0,64(a3)
80010308:	b9e1                	j	8000ffe0 <loop+0xef08>
8001030a:	d8e0                	sw	s0,116(s1)
8001030c:	52e8                	lw	a0,100(a3)
8001030e:	89593cfb          	0x89593cfb
80010312:	56c6034f          	fnmadd.q	ft6,fa2,fa2,fa0,rne
80010316:	95d9                	srai	a1,a1,0x36
80010318:	7e18df2b          	0x7e18df2b
8001031c:	3f62                	fld	ft10,56(sp)
8001031e:	49d0                	lw	a2,20(a1)
80010320:	121a                	slli	tp,tp,0x26
80010322:	5142                	lw	sp,48(sp)
80010324:	4906                	lw	s2,64(sp)
80010326:	71403b7b          	0x71403b7b
8001032a:	5d4d                	li	s10,-13
8001032c:	6179                	addi	sp,sp,464
8001032e:	7625                	lui	a2,0xfffe9
80010330:	8dbe                	mv	s11,a5
80010332:	3a05                	jal	8000fc62 <loop+0xeb8a>
80010334:	a469690f          	0xa469690f
80010338:	9960c15b          	0x9960c15b
8001033c:	3966                	fld	fs2,120(sp)
8001033e:	cbc9                	beqz	a5,800103d0 <data+0x3d0>
80010340:	d398ecbf 005fa218 	0x5fa218d398ecbf
80010348:	230d                	jal	8001086a <_end+0x456>
8001034a:	6604                	flw	fs1,8(a2)
8001034c:	68ad                	lui	a7,0xb
8001034e:	8d330397          	auipc	t2,0x8d330
80010352:	1ec06a83          	0x1ec06a83
80010356:	e4a0                	fsw	fs0,72(s1)
80010358:	088c                	addi	a1,sp,80
8001035a:	3df8                	fld	fa4,248(a1)
8001035c:	66e6                	flw	fa3,88(sp)
8001035e:	1e78                	addi	a4,sp,828
80010360:	dbd5                	beqz	a5,80010314 <data+0x314>
80010362:	e8e8                	fsw	fa0,84(s1)
80010364:	633c                	flw	fa5,64(a4)
80010366:	95e0746f          	jal	s0,7ff174c4 <main-0xe8b3c>
8001036a:	197f                	0x197f
8001036c:	65e65347          	0x65e65347
80010370:	1eb4                	addi	a3,sp,888
80010372:	0632                	slli	a2,a2,0xc
80010374:	7dfa                	flw	fs11,188(sp)
80010376:	68ce                	flw	fa7,208(sp)
80010378:	3264                	fld	fs1,224(a2)
8001037a:	7914                	flw	fa3,48(a0)
8001037c:	a411                	j	80010580 <_end+0x16c>
8001037e:	ebd4                	fsw	fa3,20(a5)
80010380:	7695                	lui	a3,0xfffe5
80010382:	f97a                	fsw	ft10,176(sp)
80010384:	a196                	fsd	ft5,192(sp)
80010386:	f9fc                	fsw	fa5,116(a1)
80010388:	9515                	srai	a0,a0,0x25
8001038a:	54580637          	lui	a2,0x54580
8001038e:	0f21f037          	lui	zero,0xf21f
80010392:	ac86                	fsd	ft1,88(sp)
80010394:	8935                	andi	a0,a0,13
80010396:	c9f0                	sw	a2,84(a1)
80010398:	7041                	0x7041
8001039a:	a2a6                	fsd	fs1,320(sp)
8001039c:	1fd14393          	xori	t2,sp,509
800103a0:	2249                	jal	80010522 <_end+0x10e>
800103a2:	1985                	addi	s3,s3,-31
800103a4:	0f89                	addi	t6,t6,2
800103a6:	3461                	jal	8000fe2e <loop+0xed56>
800103a8:	50de                	lw	ra,244(sp)
800103aa:	e701                	bnez	a4,800103b2 <data+0x3b2>
800103ac:	e716fd37          	lui	s10,0xe716f
800103b0:	96f8                	0x96f8
800103b2:	7a3a                	flw	fs4,172(sp)
800103b4:	5454                	lw	a3,44(s0)
800103b6:	5641                	li	a2,-16
800103b8:	59512a43          	fmadd.s	fs4,ft2,fs5,fa1,rdn
800103bc:	56fa                	lw	a3,188(sp)
800103be:	3e1a                	fld	ft8,416(sp)
800103c0:	769f 635b 0116      	0x116635b769f
800103c6:	eee2                	fsw	fs8,92(sp)
800103c8:	d3c8                	sw	a0,36(a5)
800103ca:	c352                	sw	s4,132(sp)
800103cc:	8e04                	0x8e04
800103ce:	22b8                	fld	fa4,64(a3)
800103d0:	a0fd                	j	800104be <_end+0xaa>
800103d2:	0a5a                	slli	s4,s4,0x16
800103d4:	1129                	addi	sp,sp,-22
800103d6:	a062                	fsd	fs8,0(sp)
800103d8:	2b5a                	fld	fs6,400(sp)
800103da:	ed0d                	bnez	a0,80010414 <_end>
800103dc:	0e1f ec7a f9d3      	0xf9d3ec7a0e1f
800103e2:	44f1                	li	s1,28
800103e4:	4bcb3d9b          	0x4bcb3d9b
800103e8:	d2cc                	sw	a1,36(a3)
800103ea:	25cd348f          	0x25cd348f
800103ee:	24d8                	fld	fa4,136(s1)
800103f0:	cab2                	sw	a2,84(sp)
800103f2:	82b9                	srli	a3,a3,0xe
800103f4:	5e49                	li	t3,-14
800103f6:	882e                	mv	a6,a1
800103f8:	8b64b043          	fmadd.d	ft0,fs1,fs6,fa7,rup
800103fc:	d92c                	sw	a1,112(a0)
800103fe:	a6fd                	j	800107ec <_end+0x3d8>

Disassembly of section .tohost:

80010400 <tohost>:
	...

80010410 <fromhost>:
80010410:	0000                	unimp
	...
